"332","Andreas_Bube","36282257","","5669","20161112074936"
"631","Kemarley_Brown","46728894","","4543","20161023002952"
"1142","Ahmed_Bader_Magour","51578032","","1298","20161014120734"
"830","Boris_Berian","49846430","","7760","20161023150613"
"973","Abdi_Hakin_Ulad","51336100","","3263","20161019110522"
"503","Jozef_Repčík","37935278","","6976","20161020135219"
"546","Adam_Helcelet","41365544","","3933","20161022042133"
"650","Takamasa_Kitagawa","47333664","","2775","20161105120155"
"312","Sam_Crouser","35730115","","5246","20161029154045"
"869","Wataru_Yazawa","50906860","","6844","20161105103058"
"585","Rushwahl_Samaai","43454735","","6112","20161015050618"
"750","Mohamed_Sghaier","47672303","","4547","20161023102820"
"357","Chijindu_Ujah","36414926","","3902","20161103175434"
"161","Antti_Ruuskanen","23838219","","5869","20161016030022"
"552","Tomas_Walsh","42140328","","14198","20161105235917"
"421","Muhammad_Halim","36688509","","6199","20161019140246"
"914","Łukasz_Grzeszczuk","51089918","","3203","20161024052352"
"905","Tihomir_Ivanov","51083149","","2497","20161024052310"
"775","Abdelati_El_Guesse","47682778","","2144","20161023054402"
"155","Javier_Culson","23019591","","25540","20161020091016"
"25","Jaysuma_Saidy_Ndure","4678309","","43419","20161112113219"
"649","Leaname_Maotoanong","47332845","","3962","20161002054954"
"349","Victor_Hogan","36317178","","7351","20161111174954"
"1089","Ousseini_Djibo_Idrissa","51407459","","1298","20161012214411"
"1137","Hamid_Reza_Zouravand","51562910","","1317","20161022095141"
"333","Pierre-Ambroise_Bosse","36282313","","4514","20160921212746"
"929","Mick_Clohisey","51213791","","2194","20161018020306"
"1039","Philipp_Pflieger","51384031","","1421","20161018220650"
"693","Bilal_Tabti","47618789","","3116","20161023053435"
"1025","Mohammed_Rageh","51382141","","2174","20161024062545"
"1094","Bachir_Mahamat","51415040","","1416","20161023163715"
"637","Huang_Shih-Feng","46910143","","10553","20161024004609"
"845","Pol_Moya","49996401","","3179","20161023170107"
"669","Lukas_Weisshaidinger","47496325","","6387","20161023050010"
"30","Harry_Aikines-Aryeetey","5934697","","7496","20161003124855"
"518","Xue_Changrui","39960986","","3599","20161023183038"
"750","Mohamed_Sghaier","47672303","","4547","20161023102820"
"605","Ejowvokoghene_Oduduru","44805138","","8242","20161010221923"
"432","Alberth_Bravo","36702654","","10079","20161019154342"
"1087","Burkheart_Ellis","51407320","","1282","20161012214411"
"962","Manuel_Esteban_Soto","51327304","","4033","20161024061546"
"985","Nelson_Cherutich","51345915","","1611","20161029161422"
"432","Alberth_Bravo","36702654","","10079","20161019154342"
"688","Joshua_Kiprui_Cheptegei","47604579","","3112","20161003172350"
"1012","Luis_Lopez_(racewalker)","51370602","","1338","20161019221659"
"1082","Mesud_Pezer","51404445","","2603","20161024062817"
"775","Abdelati_El_Guesse","47682778","","2144","20161023054402"
"240","Dimitrios_Chondrokoukis","31115512","","5366","20161104124344"
"758","Higor_Alves","47673911","","3818","20161107195922"
"84","Jared_Tallent","12955969","","18489","20161029084610"
"472","Ruslan_Dmytrenko","37025150","","5213","20161030183052"
"773","Peter_Matthews_(sprinter)","47680260","","2510","20161006163444"
"1083","Theo_Piniau","51404574","","2940","20161024062817"
"940","Lindon_Victor_(athlete)","51277077","","7269","20161014130607"
"562","Antonio_Abadía","42195250","","3871","20161102211432"
"878","Jacob_Rozani","50978205","","3203","20161012101513"
"484","Marc_Mundell","37096424","","4268","20161020093138"
"1127","Ilya_Tyapkin","51544441","","1127","20161018130751"
"1146","Dzmitry_Nabokau","51579411","","1202","20161013180152"
"1002","Soufiane_El_Bakkali","51365388","","3875","20161024062325"
"451","Christopher_Linke","36737546","","4024","20161019193404"
"528","Javon_Francis","40287872","","3101","20161022000842"
"286","Balázs_Baji","34954618","","8847","20161026125346"
"910","Chris_Benard","51089040","","6376","20161020043858"
"1024","Namakoe_Nkhasi","51381952","","2891","20161012230226"
"1059","Joshua_Robinson","51384778","","3355","20161024062545"
"648","Milan_Trajkovic","47319962","","4769","20161023040503"
"695","Fernando_Carro","47618857","","3467","20161023053435"
"173","Wojciech_Theiner","26007607","","2746","20161014142831"
"1043","Mynhardt_Kawanivi","51384109","","1419","20161018214006"
"523","Mark_Dry","40128704","","5610","20161105225626"
"239","Florian_Carvalho","31107883","","2858","20160911151100"
"1043","Mynhardt_Kawanivi","51384109","","1419","20161018214006"
"884","Karabo_Mothibi","50996677","","2180","20161001152209"
"1023","Charles_Yosei_Muneria","51381810","","4849","20161024062545"
"331","Andrew_Riley","36278297","","4515","20161018150428"
"781","Younés_Essalhi","47689118","","1712","20161107195923"
"770","Mohamed_Fakhri_Ismail","47679510","","2128","20161107195923"
"143","Petr_Svoboda_(athlete)","21847910","","6661","20161020055644"
"473","Máté_Helebrandt","37025364","","4329","20160923231710"
"320","Tarık_Langat_Akdağ","35937835","","5155","20161018110450"
"831","Tobias_Dahm","49851350","","2361","20161023150615"
"329","Gurmeet_Singh","36255083","","4564","20161013171426"
"1039","Philipp_Pflieger","51384031","","1421","20161018220650"
"959","Boonthung_Srisung","51323561","","2413","20161024061544"
"453","Mikel_Thomas","36834565","","6734","20161020041957"
"578","Brett_Robinson_(athlete)","43286013","","9086","20161023102624"
"806","Matteo_Giupponi","47699166","","1619","20161111130053"
"968","Alberto_Álvarez","51334195","","4761","20161024061550"
"707","Tega_Odele","47623705","","5552","20161023053447"
"667","Tanel_Laanmäe","47481075","","4110","20161023045515"
"378","Dawit_Wolde","36566356","","5706","20160922231533"
"529","Matthew_Hughes_(athlete)","40293469","","4134","20161022000900"
"828","Emmanuel_Dasor","49843796","","4295","20161010220508"
"1026","Luke_Mathews","51382446","","3470","20161105221229"
"836","Stephen_Mozia","49851725","","9584","20161023150615"
"22","Scott_Westcott","4442238","","5355","20161111130507"
"783","Tafese_Seboka","47689421","","2743","20161023054407"
"509","Robert_Sobera","38718245","","4559","20161104222346"
"508","Aleixo-Platini_Menga","38623364","","3209","20161021035347"
"136","Bruno_de_Barros","19088096","","9542","20161012014621"
"945","Guðni_Valur_Guðnason","51310844","","2499","20161014000537"
"377","Majededdin_Ghazal","36562615","","7459","20161019030444"
"286","Balázs_Baji","34954618","","8847","20161026125346"
"398","Cao_Shuo","36642341","","3633","20161019085706"
"436","Abrar_Osman","36702899","","4170","20161019154342"
"634","Gao_Xinglong","46892605","","4575","20161005030143"
"652","Abdelmalik_Lahoulou","47337594","","4103","20161023041520"
"459","Davide_Manenti","36835472","","3963","20161020073035"
"462","Michał_Pietrzak","36910363","","6696","20161109141026"
"598","Inderjeet_Singh","44005409","","6099","20161107142113"
"763","Mateusz_Przybylko","47674229","","3048","20160930233357"
"1103","Peter_Bol","51492967","","1325","20161103043534"
"838","Olu_Olamigoke","49858029","","3361","20161023150615"
"464","Dzianis_Simanovich","37007131","","1503","20161017004426"
"965","Huang_Bokai","51332317","","2315","20161024061550"
"156","James_Dasaolu","23146962","","10841","20161013060754"
"71","Kim_Hyun-sub","12129955","","5019","20161004150524"
"98","Nery_Brenes","17726251","","13110","20161011033018"
"190","Javier_Cienfuegos","26774677","","8202","20161015013839"
"376","Rodman_Teltull","36562489","","7277","20161019030444"
"350","Nenad_Filipović_(racewalker)","36319232","","1549","20161020022940"
"14","Ivan_Tsikhan","2448783","","11741","20161112085637"
"626","Richard_Ringer","45671139","","4106","20161022231205"
"111","Zhang_Peimeng","18707640","","10126","20161030113909"
"170","John_Nunn_(racewalker)","25644154","","10013","20161020025325"
"732","Marcin_Krukowski","47670729","","3455","20161023054231"
"996","Nicholas_Scarvelis","51360559","","6521","20161105231904"
"1130","Juan_Carlos_Trujillo","51544597","","1130","20161018214006"
"662","Martin_Kupper","47422993","","4702","20161005030148"
"1156","José_Ignacio_Díaz","51592205","","1160","20161014190516"
"642","Michael_Hartfield","47157672","","10368","20161020043858"
"598","Inderjeet_Singh","44005409","","6099","20161107142113"
"384","Hansle_Parchment","36596123","","5470","20161022232319"
"499","Mahau_Suguimati","37896160","","9910","20161020134645"
"571","Darlan_Romani","42469161","","8088","20161022063630"
"83","Luis_Fernando_López","12955882","","11923","20161107064917"
"1029","Ricardo_de_Souza","51383222","","4001","20161025202521"
"75","Lukáš_Melich","12582968","","4357","20161005045009"
"506","Muktar_Edris","38336492","","6014","20161021001823"
"959","Boonthung_Srisung","51323561","","2413","20161024061544"
"458","Jacob_Araptany","36835295","","2462","20161020041957"
"712","Harold_Houston","47630775","","7464","20161023053453"
"949","Romário_Leitão","51313081","","945","20161019001506"
"1028","Jorge_Vides","51383009","","5728","20161101202105"
"1080","Tlotliso_Leotlela","51396855","","2921","20161012214358"
"222","Borja_Vivas","28645327","","7071","20161015092410"
"300","Fedrick_Dacres","35388616","","3607","20160920111810"
"1041","Atef_Saad","51384063","","1489","20161024062545"
"688","Joshua_Kiprui_Cheptegei","47604579","","3112","20161003172350"
"584","Wayde_van_Niekerk","43443520","","14815","20161105220854"
"711","Adama_Jammeh","47630765","","3873","20161112112017"
"950","Abadi_Hadis","51316628","","1743","20161024061027"
"617","Dylan_Borlée","45606658","","8606","20161003102922"
"235","Su_Bingtian","30117354","","9942","20161023112745"
"527","Alex_Wright_(racewalker)","40260912","","1563","20161021235543"
"496","Seito_Yamamoto","37285952","","3266","20161020103657"
"1120","Mayobanex_de_Óleo","51536883","","1368","20161025202521"
"719","Charles_Philibert-Thiboutot","47670278","","3991","20161105104036"
"806","Matteo_Giupponi","47699166","","1619","20161111130053"
"835","Mostafa_Smaili","49851652","","2068","20161112074248"
"403","Kaveh_Mousavi","36647713","","5463","20161021073256"
"600","El_Hassan_El-Abbassi","44016696","","7910","20161022124856"
"646","Nazim_Babayev","47289471","","4421","20161013220641"
"182","Braian_Toledo","26472786","","19172","20161107064754"
"652","Abdelmalik_Lahoulou","47337594","","4103","20161023041520"
"806","Matteo_Giupponi","47699166","","1619","20161111130053"
"495","Nikita_Filippov","37285826","","3229","20160923025009"
"970","Daigo_Hasegawa","51335117","","2188","20161024061559"
"848","Nauraj_Singh_Randhawa","50360290","","1827","20161026040743"
"418","Keisuke_Ushiro","36673813","","3697","20161019122733"
"527","Alex_Wright_(racewalker)","40260912","","1563","20161021235543"
"448","Maoulida_Darouèche","36703221","","9356","20161112040444"
"899","Anthony_Romaniw","51069777","","2723","20161112081725"
"852","Stanly_del_Carmen","50598864","","4984","20161024005953"
"499","Mahau_Suguimati","37896160","","9910","20161020134645"
"805","Ivan_Banzeruk","47699114","","1851","20161107195923"
"1096","Le_Roux_Hamman","51415695","","1389","20161024062826"
"909","Cale_Simmons","51088903","","3336","20161024052352"
"818","Raymond_Kibet","48433327","","2061","20161023070438"
"127","Kevin_Borlée","18932480","","15589","20161112171313"
"452","Matthias_Bühler","36834440","","2599","20160924201317"
"685","Wojciech_Nowicki","47602123","","4261","20161023053151"
"533","Masbah_Ahmmed","40303266","","1618","20160928020512"
"59","Marco_De_Luca","8233106","","5906","20161022233230"
"266","Dejen_Gebremeskel","32978171","","15898","20161111050021"
"967","Stanley_Joseph","51333416","","2108","20161024061550"
"19","Jaroslav_Bába","3020583","","9331","20161015122651"
"1002","Soufiane_El_Bakkali","51365388","","3875","20161024062325"
"91","Mike_Rodgers","16165027","","7844","20161020025813"
"776","Reinhardt_van_Rensburg","47682787","","3196","20161023054402"
"580","David_Torrence_(athlete)","43375062","","12179","20161022091117"
"253","Stephen_Newbold","32377755","","4546","20160916170637"
"663","Chan_Ming_Tai","47431684","","3315","20161023044316"
"142","Rondel_Sorrillo","21772243","","8480","20161012234441"
"778","Benson_Seurei","47683141","","3375","20161107195923"
"695","Fernando_Carro","47618857","","3467","20161023053435"
"65","Cuthbert_Nyasango","9711290","","3410","20161024110836"
"66","Pavel_Lyzhyn","9815266","","5162","20161009075343"
"177","Andriy_Protsenko","26325268","","5736","20161014202646"
"23","Nick_Willis","4518550","","20906","20161111142216"
"505","Artur_Brzozowski","38039726","","3286","20161020151912"
"965","Huang_Bokai","51332317","","2315","20161024061550"
"716","Aleksi_Ojala","47669373","","1737","20161013163538"
"603","Charles_Jock","44472559","","4688","20161022174550"
"1002","Soufiane_El_Bakkali","51365388","","3875","20161024062325"
"114","Ronald_Forbes","18810793","","13385","20161107085138"
"1053","Luis_Orta","51384335","","1346","20161018020306"
"126","Mahiedine_Mekhissi-Benabbad","18901083","","23621","20161026090718"
"600","El_Hassan_El-Abbassi","44016696","","7910","20161022124856"
"166","Monzavous_Edwards","23999297","","6691","20161013131004"
"649","Leaname_Maotoanong","47332845","","3962","20161002054954"
"6","Ezekiel_Kemboi","1037024","","16479","20161110074649"
"889","Filip_Ingebrigtsen","51039502","","3335","20161001153206"
"984","Ali_Messaoudi","51345836","","1706","20161029152019"
"1063","Artur_Kozłowski_(athlete)","51386975","","2091","20161103180038"
"1144","Benik_Abrahamyan","51578226","","1309","20161030225956"
"586","Nick_Miller_(athlete)","43456591","","11284","20161022093343"
"315","Chris_Erickson","35799327","","1999","20161021025008"
"117","Germán_Lauro","18875625","","26256","20161011093551"
"589","Oskari_Mörö","43550812","","2949","20161013150154"
"679","Robert_Renner_(athlete)","47580250","","3667","20161023052214"
"885","Hillary_Bor","51030846","","5788","20161024052137"
"97","Richard_Thompson_(sprinter)","17651049","","20147","20161011072602"
"767","Hiroki_Ogita","47679215","","2012","20161023054402"
"600","El_Hassan_El-Abbassi","44016696","","7910","20161022124856"
"199","Tadas_Šuškevičius","28119624","","5101","20161015075302"
"1088","Alex_Sampao","51407400","","1527","20161014144548"
"685","Wojciech_Nowicki","47602123","","4261","20161023053151"
"511","Augusto_Dutra_de_Oliveira","39426059","","8074","20161030191738"
"1092","Mohamed_Ismail_Ibrahim","51412405","","2640","20161024062822"
"761","Talles_Frederico_Silva","47674163","","4740","20161023054231"
"524","Jeremy_Taiwo","40225631","","6821","20161102024815"
"974","Santino_Kenyi","51336380","","1845","20161024062157"
"618","Pablo_Torrijos","45607498","","6374","20161005023430"
"642","Michael_Hartfield","47157672","","10368","20161020043858"
"789","Kévin_Campion","47689903","","1637","20161107195923"
"426","Ever_Palma","36701566","","1576","20161019140253"
"278","Raidel_Acea","33680390","","9563","20161020090503"
"671","Henricho_Bruintjies","47507430","","5040","20161023050016"
"1005","Stefan_Brits","51365994","","5812","20161024062325"
"472","Ruslan_Dmytrenko","37025150","","5213","20161030183052"
"131","Emmanuel_Callender","18985215","","12196","20161022180219"
"515","Shavez_Hart","39951559","","4290","20160927123922"
"348","Patrick_Tiernan","36314971","","4652","20161018161456"
"466","Isamu_Fujisawa","37007317","","1058","20160923222214"
"966","Troy_Doris","51332766","","2769","20161105165715"
"468","Juan_Manuel_Cano","37007582","","10565","20161020084632"
"453","Mikel_Thomas","36834565","","6734","20161020041957"
"418","Keisuke_Ushiro","36673813","","3697","20161019122733"
