"226","Nerina_Shute","12978736","","10383","20160807085654"
"210","Eve_Pollard","10873488","","6228","20161112041857"
"338","Brenda_Jagger","37192972","","3204","20161031062515"
"103","Cicely_Hamilton","1455707","","7483","20161109120524"
"124","E._H._Young","1957930","","4053","20161005182938"
"47","Vera_Brittain","247443","","17995","20161109172716"
"365","Constance_Peel","41780955","","7768","20161029152537"
"251","Annie_Dalton","18479136","","3935","20161022231409"
"186","Susie_Boyt","7077083","","2385","20161029195408"
"248","Catherine_Amy_Dawson_Scott","17714208","","14597","20161027012323"
"211","Rosamond_Lehmann","11068250","","10105","20161027071650"
"251","Annie_Dalton","18479136","","3935","20161022231409"
"211","Rosamond_Lehmann","11068250","","10105","20161027071650"
"280","Cynthia_Harrod-Eagles","23366875","","11539","20161030052433"
"203","Anna_Gordon_Keown","9692726","","3212","20161024102831"
"386","Elizabeth_Anesta_Sewell","51607813","","1105","20161012215333"
"86","Caroline_Graham","974092","","5263","20161110051805"
"42","Richmal_Crompton","213531","","13317","20161106114533"
"43","P._L._Travers","215141","","23292","20161112014307"
"25","Sylvia_Anderson","166830","","16891","20161108140346"
"158","Gladys_Bronwyn_Stern","4047291","","6689","20161111071129"
"174","Charlotte_Lamb","5693232","","14491","20161112181426"
"143","Magdalen_Nabb","3157603","","3436","20161029061513"
"297","Greta_Rana","26788016","","9312","20160829063521"
"244","Elizabeth_Buchan","16424387","","5227","20161029235715"
"300","Celia_Dale","28214417","","1268","20161013053103"
"362","Mary_Wibberley","41495185","","2005","20160929095402"
"378","F._E._Mills_Young","47226150","","2040","20160930165648"
"75","Joanna_Trollope","782922","","10715","20161109140518"
"55","A._S._Byatt","364358","","19076","20161107124031"
"270","Susan_Hillmore","22212666","","1071","20160825103149"
"37","Fanny_Cradock","207295","","27844","20161108133837"
"204","Naomi_Jacob","9933639","","6936","20161109042321"
"206","Nancy_Price","10448735","","17603","20161104203220"
"334","Maynah_Lewis","36617038","","4482","20161028003643"
"188","Patricia_Wentworth","7527569","","8755","20161022063940"
"154","Freya_North","3767691","","4051","20161029123141"
"261","Gerda_Charles","21090943","","2697","20161028025927"
"288","Rosie_Rushton","24528289","","2902","20161025072034"
"202","Catherine_Storr","9368971","","7198","20161028203919"
"136","Janet_Quin-Harkin","2666216","","5299","20161102093153"
"59","Brigid_Brophy","429069","","9710","20161112011949"
"227","Anne_Scott-James","13026183","","4620","20161002194546"
"102","Constance_Holme","1451789","","2497","20161109120025"
"18","Nancy_Mitford","125819","","65961","20161105171021"
"293","Elizabeth_Chadwick","25798370","","5132","20161105003132"
"95","Edith_Ellis","1097464","","4052","20161110111604"
"172","Frances_Fyfield","5546690","","4426","20161112154219"
"267","Mary_Angela_Dickens","21944269","","11617","20161105140551"
"140","Pamela_Frankau","3001985","","5717","20160809044437"
"286","Winifred_Carter","23911955","","4940","20160903235124"
"154","Freya_North","3767691","","4051","20161029123141"
"265","Roberta_Leigh","21628506","","13538","20161104124217"
"273","Verily_Anderson","22302187","","7374","20161102153123"
"172","Frances_Fyfield","5546690","","4426","20161112154219"
"8","Iris_Murdoch","60315","","29706","20161105033426"
"129","Barbara_Willard","2273961","","5315","20161111050202"
"166","Angela_Huth","5322010","","4320","20161112104021"
"106","Enid_Bagnold","1493229","","5366","20161109130047"
"77","Mary_Cholmondeley","811482","","8385","20161111211403"
"319","Margaret_Leigh","34612427","","3785","20160918061128"
"168","Gwendoline_Butler","5366288","","8960","20161112112701"
"345","Amy_Dora_Reynolds","37407591","","5412","20160924152815"
"153","Angela_Brazil","3677250","","32760","20161111011536"
"299","Elizabeth_Berridge_(novelist)","27950071","","1853","20161027033540"
"155","Hazel_Holt","3808193","","2789","20161111035148"
"314","Susan_Lewis_(writer)","32570185","","6526","20161104210951"
"293","Elizabeth_Chadwick","25798370","","5132","20161105003132"
"147","Susan_Kay","3241476","","3692","20161112085146"
"85","Monica_Edwards","972817","","12910","20161110051450"
"307","Anna_King_(writer)","28820745","","1470","20160817074527"
"369","Ivy_Low_Litvinov","42530062","","4915","20161009010139"
"128","Norah_Lofts","2147857","","11718","20161013061748"
"261","Gerda_Charles","21090943","","2697","20161028025927"
"20161104042328",,,,,
"324","Lauren_Henderson","36160257","","11167","20161101055713"
"299","Elizabeth_Berridge_(novelist)","27950071","","1853","20161027033540"
"66","Mary_Webb","604101","","12339","20161105084045"
"335","Rona_Randall","36627484","","6130","20160923013915"
"385","Ursula_Orange","49690005","","5242","20161109120934"
"200","Penelope_Gilliatt","9251414","","5282","20160820210502"
"343","Clare_Chambers","37253576","","3066","20161028025947"
"228","Margiad_Evans","13126956","","4904","20161029184648"
"61","Ruth_Prawer_Jhabvala","494664","","28006","20161109041557"
"78","Fay_Weldon","826812","","12415","20161106085641"
"159","Helen_Forrester","4726837","","5963","20161112024032"
"291","Yvonne_Antrobus","25351157","","3526","20161106035318"
"321","Margaret_Powell","35760036","","9743","20161107054025"
"307","Anna_King_(writer)","28820745","","1470","20160817074527"
"124","E._H._Young","1957930","","4053","20161005182938"
"207","Carol_Birch","10714843","","4424","20161028102818"
"35","Rosemary_Sutcliff","203006","","23612","20161106111416"
"44","Bryher","216064","","9905","20161102082336"
"54","Angela_Carter","353854","","14755","20161107114017"
"263","Helen_Zahavi","21428915","","4359","20161104123012"
"192","Catherine_Aird","8142321","","4098","20161027034422"
"74","Andrea_Levy","711824","","12660","20161105231935"
"192","Catherine_Aird","8142321","","4098","20161027034422"
"58","Stella_Gibbons","409190","","52133","20161108090441"
"22","Joanne_Harris","163404","","18905","20161106075806"
"330","Ursula_Torday","36560692","","8930","20160930190824"
"218","Sara_Craven","11773975","","9625","20161028025308"
"361","Anne_Hocking","41466233","","4218","20161001004144"
"271","Winifred_Foley","22255381","","6140","20161026224602"
"226","Nerina_Shute","12978736","","10383","20160807085654"
"317","Livi_Michael","33708969","","11061","20161105084544"
"341","Sarah_Woodhouse","37238420","","2991","20160924070656"
"384","Tessa_Hadley","49638508","","23816","20161027021021"
"1","Agatha_Christie","984","","85160","20161105181233"
"336","Anne_Rundle","36638826","","6518","20161104101950"
"238","Dorothy_Whipple","13896862","","4654","20161029221022"
"385","Ursula_Orange","49690005","","5242","20161109120934"
"205","Drusilla_Modjeska","10350379","","5812","20161106214314"
"186","Susie_Boyt","7077083","","2385","20161029195408"
"311","Iris_Wedgwood","30195856","","6347","20161111130422"
"89","Miss_Read","1078053","","7885","20161110103233"
"193","Lena_Kennedy","8179820","","1727","20160814105022"
"350","Ann_Bridge","38871230","","8399","20161107135512"
"223","Judith_Cook","12762156","","3419","20161028025548"
"328","Mary_Howard_(novelist)","36357585","","5837","20160922200755"
"287","Ruth_Adam","24085459","","6197","20160814094602"
"227","Anne_Scott-James","13026183","","4620","20161002194546"
"96","Sheila_Kaye-Smith","1125181","","9524","20161110123104"
"259","Judy_Astley","19844311","","3425","20161030120307"
"33","Barbara_Cartland","199995","","23372","20161106110514"
"243","Barbara_Comyns_Carr","16039070","","5672","20161028030032"
"257","Angela_du_Maurier","19533577","","3277","20160902083152"
"283","Isobel_English","23760768","","2968","20161028162620"
"346","Irene_Mossop","37527837","","10619","20160925001253"
"382","Esther_Meynell","47864060","","2359","20161112130115"
"299","Elizabeth_Berridge_(novelist)","27950071","","1853","20161027033540"
"226","Nerina_Shute","12978736","","10383","20160807085654"
"361","Anne_Hocking","41466233","","4218","20161001004144"
"225","Celia_Fremlin","12845474","","3235","20160807073826"
"7","Stevie_Smith","56103","","17857","20161106005404"
"48","Rosamunde_Pilcher","261384","","9799","20161106172506"
"335","Rona_Randall","36627484","","6130","20160923013915"
"188","Patricia_Wentworth","7527569","","8755","20161022063940"
"328","Mary_Howard_(novelist)","36357585","","5837","20160922200755"
"82","Lynne_Truss","858684","","5095","20161109191430"
"214","Josephine_Elder","11495401","","2672","20161111134843"
"245","Eleanor_Smith","16993567","","2515","20160828054953"
"13","Anita_Brookner","84958","","8098","20161105044818"
"239","Jon_Godden","14287343","","8209","20161106071822"
"141","Ethel_Mannin","3010383","","13950","20161112043307"
"20","Frances_Hodgson_Burnett","161229","","33942","20161106074927"
"190","Elsie_J._Oxenham","7684417","","26978","20161029160355"
"75","Joanna_Trollope","782922","","10715","20161109140518"
"48","Rosamunde_Pilcher","261384","","9799","20161106172506"
"80","E._Arnot_Robertson","855604","","6386","20160928040001"
"57","Penelope_Fitzgerald","405928","","13057","20161112163739"
"74","Andrea_Levy","711824","","12660","20161105231935"
"17","Mary_Renault","104139","","13137","20161105083618"
"247","Meriol_Trevor","17641896","","4765","20160925190724"
"110","Malorie_Blackman","1700624","","24380","20161112054148"
"209","Evelyn_Anthony","10868846","","5962","20161027034518"
"270","Susan_Hillmore","22212666","","1071","20160825103149"
"194","Phyllis_Bentley","8231636","","5529","20161102184102"
"208","Lucinda_Roy","10742082","","7107","20161104114215"
"173","Hilary_Mantel","5594103","","32293","20161112170024"
"49","Julie_Burchill","292226","","45694","20161106204436"
"190","Elsie_J._Oxenham","7684417","","26978","20161029160355"
"331","Margaret_Maddocks","36566485","","5528","20160922231533"
"339","Marie_Joseph","37202710","","3558","20160924054117"
"106","Enid_Bagnold","1493229","","5366","20161109130047"
"82","Lynne_Truss","858684","","5095","20161109191430"
"219","Josephine_Bell","11788468","","4415","20161107002305"
"249","Violet_Needham","17953206","","3666","20161022144300"
"163","Antonia_White","5077668","","10847","20161112073602"
"81","Antonia_Forest","855628","","8281","20161028211909"
"368","Jean_Middlemass","42254561","","2581","20161005182948"
"32","Margery_Allingham","199922","","12808","20161106110514"
"42","Richmal_Crompton","213531","","13317","20161106114533"
"56","Elinor_Brent-Dyer","372456","","6844","20161107131922"
"65","Jackie_Collins","595864","","31984","20161109074128"
"241","Margaret_Irwin","15656399","","4558","20161111104528"
"223","Judith_Cook","12762156","","3419","20161028025548"
"21","P._D._James","161757","","22932","20161106074949"
"362","Mary_Wibberley","41495185","","2005","20160929095402"
"283","Isobel_English","23760768","","2968","20161028162620"
"287","Ruth_Adam","24085459","","6197","20160814094602"
"25","Sylvia_Anderson","166830","","16891","20161108140346"
"334","Maynah_Lewis","36617038","","4482","20161028003643"
"363","June_Boland","41583203","","2122","20161001004314"
"382","Esther_Meynell","47864060","","2359","20161112130115"
"334","Maynah_Lewis","36617038","","4482","20161028003643"
"305","Kathy_Page","28741186","","6355","20161106014747"
"199","Phyllis_Bottome","8901530","","6534","20161005182942"
"70","Sylvia_Townsend_Warner","638826","","13270","20161109095241"
"156","Emma_Tennant","3811710","","6319","20160929045653"
"53","Radclyffe_Hall","320696","","13801","20161107075311"
"13","Anita_Brookner","84958","","8098","20161105044818"
"365","Constance_Peel","41780955","","7768","20161029152537"
"118","Mary_Hayley_Bell","1824434","","8041","20161111103757"
"115","Noel_Streatfeild","1763873","","9997","20161110080047"
"130","Emma_Smith_(author)","2275675","","4670","20160725000647"
"181","Rachel_Cusk","6552047","","5281","20161029214711"
"252","E._M._Almedingen","18581073","","4861","20161022232411"
"10","Edith_Pargeter","76500","","13625","20161105042817"
"327","Norah_Burke","36347105","","3278","20161101092208"
"217","Kathleen_Lindsay","11631843","","2793","20160816063054"
"332","Suzanne_Goodwin","36578491","","6340","20160922233758"
"136","Janet_Quin-Harkin","2666216","","5299","20161102093153"
"173","Hilary_Mantel","5594103","","32293","20161112170024"
"22","Joanne_Harris","163404","","18905","20161106075806"
"69","Rose_Macaulay","634303","","11573","20161105121449"
"257","Angela_du_Maurier","19533577","","3277","20160902083152"
"129","Barbara_Willard","2273961","","5315","20161111050202"
"349","Adeline_Sergeant","38652980","","6071","20161107131354"
"46","Kate_O'Mara","236755","","24002","20161106124850"
"384","Tessa_Hadley","49638508","","23816","20161027021021"
"210","Eve_Pollard","10873488","","6228","20161112041857"
"274","Alice_Chetwynd_Ley","22320346","","3859","20161031055555"
"388","Alice_Diehl","52235506","","4573","20161110114712"
"112","Jill_Paton_Walsh","1745445","","7774","20161110073609"
"162","Katharine_Burdekin","4957714","","7995","20161103010005"
"180","Alice_Muriel_Williamson","6460492","","7003","20160926042526"
"297","Greta_Rana","26788016","","9312","20160829063521"
"318","Joan_North","34491131","","2795","20160909213632"
"39","Marie_Corelli","208586","","15747","20161106113131"
"70","Sylvia_Townsend_Warner","638826","","13270","20161109095241"
"140","Pamela_Frankau","3001985","","5717","20160809044437"
"23","Mary_Wesley","163517","","9544","20161029061958"
"203","Anna_Gordon_Keown","9692726","","3212","20161024102831"
"131","Marjorie_Bowen","2353638","","20177","20161112070956"
"69","Rose_Macaulay","634303","","11573","20161105121449"
"82","Lynne_Truss","858684","","5095","20161109191430"
"352","Janice_Elliott","38938147","","1849","20160531084446"
"262","Maxwell_Gray","21257978","","11644","20161019044919"
"182","Maggie_Gee_(novelist)","6811062","","10843","20161031033845"
"354","Valerie_Grosvenor_Myer","39354533","","8911","20161107182506"
"41","Jane_Asher","210382","","20921","20161106113551"
"290","Berta_Ruck","24829559","","7965","20161005182945"
"286","Winifred_Carter","23911955","","4940","20160903235124"
"218","Sara_Craven","11773975","","9625","20161028025308"
"72","Kate_Atkinson","694293","","10965","20161110203950"
"232","Clemence_Dane","13633893","","7205","20161005182943"
"117","Nell_Dunn","1799381","","5089","20161111100518"
"53","Radclyffe_Hall","320696","","13801","20161107075311"
"83","Catherine_Cookson","905516","","17900","20161110011339"
"348","M._E._Atkinson","38567016","","3049","20160926081453"
"28","Mollie_Hardwick","170133","","1610","20160916094556"
"95","Edith_Ellis","1097464","","4052","20161110111604"
"21","P._D._James","161757","","22932","20161106074949"
"171","Penny_Dale","5476704","","3026","20161112135441"
"6","Barbara_Pym","48591","","8769","20161031014520"
"349","Adeline_Sergeant","38652980","","6071","20161107131354"
"77","Mary_Cholmondeley","811482","","8385","20161111211403"
"37","Fanny_Cradock","207295","","27844","20161108133837"
"120","Jan_Struther","1876693","","4575","20161025024114"
