"1097","Anna-Emilie_Møller","51446258","","2286","20161024120529"
"623","Rebekka_Haase","47544424","","4383","20161023051406"
"594","Yulimar_Rojas","47034033","","13025","20161101222748"
"264","Daisurami_Bonne","33681118","","10408","20161030174751"
"557","Lalita_Babar","44024356","","10889","20161107231504"
"711","Liang_Xiaojing","47661910","","3297","20160930233031"
"774","Niluka_Geethani_Rajasekara","47702291","","2799","20161109231916"
"451","Flor_Ruiz","37312891","","5724","20161020103913"
"419","Janeil_Bellille","36703146","","1383","20161019154342"
"1126","Nastassia_Puzakova","51515240","","1312","20161024120455"
"43","Fabiana_Murer","9000741","","21750","20161023112906"
"1009","Sofia_Riga","51330806","","1537","20161025150223"
"1041","Feng_Bin","51368640","","3057","20161024213151"
"907","Pauline_Pousse","51130733","","3538","20161105060550"
"113","Shelly-Ann_Fraser-Pryce","18902563","","36866","20161031132027"
"299","Elizabeth_Gleadle","36294935","","8263","20161105120438"
"382","Regina_George","36655481","","13391","20161022222242"
"775","Yiu_Kit_Ching","47702484","","2301","20161107204300"
"156","Eleni_Artymata","24032487","","6682","20161107101513"
"822","Nataliya_Lehonkova","50093995","","3855","20161108010801"
"122","Zalina_Marghieva","18982949","","6479","20161012065320"
"745","Sofie_Skoog","47664976","","3354","20161107195922"
"563","Susan_Kuijken","44338746","","16155","20161015225613"
"888","Chanice_Chase-Taylor","51073816","","1853","20161024052257"
"815","Lovisa_Lindh","49873478","","3986","20161022161716"
"1030","Iryna_Yakaltsevich","51345518","","2315","20161024180333"
"1015","Panayiota_Vlahaki","51330940","","1572","20161025140236"
"381","Omolara_Omotosho","36655450","","4096","20161019102252"
"796","Mathilde_Andraud","49494791","","3259","20161105060344"
"226","Sudha_Singh","29687964","","9051","20161107233933"
"35","Martina_Strutz","7588683","","5399","20161022072627"
"848","Alexi_Pappas","51017216","","6324","20161029065303"
"570","Dalila_Rugama","45428067","","4287","20161022224048"
"547","Maryna_Bekh","43690425","","1323","20161024190247"
"1031","Madiea_Ghafoor","51349829","","3028","20161025215253"
"695","Florina_Pierdevară","47652039","","4171","20161004003702"
"704","Caridad_Jerez","47658833","","3148","20161112185150"
"979","Iwona_Lewandowska","51330129","","1441","20161025200304"
"918","Lizzie_Lee","51214037","","4248","20161025174927"
"657","Erin_Teschuk","47609335","","5520","20161112154918"
"209","Sviatlana_Kudzelich","28678652","","3283","20161015092945"
"274","Kimberly_Williams_(athlete)","35204959","","5423","20161018055732"
"1010","Matea_Matošević","51330817","","1371","20161025140230"
"33","Souad_Aït_Salem","7362693","","7607","20161022050507"
"558","Kelly_Massey","44028646","","5535","20161022124952"
"192","Isabelle_Pedersen","28123651","","7818","20161105033525"
"1115","Kadra_Mohamed_Dembil","51512555","","3324","20161029160532"
"812","Pedrya_Seymour","49853540","","3008","20161023213400"
"571","Lennie_Waite","45470709","","2388","20161024120529"
"537","Leontia_Kallenou","43237737","","15522","20161024150410"
"68","Lucia_Hrivnák_Klocová","12946006","","7483","20161029084352"
"777","Carmiesha_Cox","47846753","","1029","20161105125939"
"49","Denisa_Rosolová","9902138","","7206","20161025005805"
"82","Lucia_Kimani","14678222","","4702","20161107071254"
"595","Khamica_Bingham","47096090","","5347","20161023024713"
"111","Natalia_Duco","18901895","","12129","20161106232333"
"932","Jackie_Baumann","51223190","","1831","20161024054420"
"932","Jackie_Baumann","51223190","","1831","20161024054420"
"823","Kendell_Williams","50112688","","3881","20161029064710"
"171","Zinaida_Sendriūtė","26370487","","5031","20161014205437"
"752","Li_Xiaohong_(athlete)","47665274","","3265","20161107195922"
"591","Lorraine_Ugen","46819437","","7465","20161103172148"
"1109","Dalal_Mesfer_Al-Harith","51506801","","1201","20161020200456"
"740","Émilie_Menuet","47664713","","3267","20161107195922"
"912","Liadagmis_Povea","51188166","","1409","20161024194622"
"517","Flings_Owusu-Agyapong","42166597","","10436","20161020150405"
"493","Laura_Muir","40267271","","5820","20161017195058"
"941","Jisna_Mathew","51303134","","2611","20161108022848"
"96","Sheniqua_Ferguson","18422307","","5661","20161003105806"
"152","Anne_Zagré","23873726","","6845","20161107101513"
"198","Hanna_Melnychenko","28218815","","6708","20161015080904"
"446","Mária_Czaková","37302170","","888","20160823190017"
"947","Sunayna_Wahi","51311619","","1252","20161020150406"
"916","Selma_Kajan","51188550","","1792","20161021150504"
"69","Chiara_Rosa","12959767","","10252","20161029084943"
"455","Maíla_Machado","37743416","","7435","20161023213400"
"601","Nadine_Visser","47270036","","7747","20161106111809"
"475","Maria_Benedicta_Chigbolu","39811863","","2980","20161021181438"
"749","Brooke_Stratton","47665167","","2980","20161107195922"
"716","Habitam_Alemu","47662176","","2718","20161023054226"
"333","Gesa_Felicitas_Krause","36559663","","6341","20161019030442"
"492","Khushbir_Kaur","40265551","","4324","20161107232302"
"18","Kenia_Sinclair","4779969","","3168","20161003012539"
"1121","Drita_Islami","51514947","","1228","20161023213400"
"191","Rasa_Drazdauskaitė","28106080","","4857","20161015075301"
"121","Iryna_Novozhylova","18982468","","3293","20161012065320"
"425","Joanna_Fiodorow","36801939","","4388","20161020003159"
"226","Sudha_Singh","29687964","","9051","20161107233933"
"558","Kelly_Massey","44028646","","5535","20161022124952"
"387","Ivanique_Kemp","36662659","","1213","20161013081431"
"1084","Fabrice_Dabla","51400874","","819","20161010204115"
"1049","Maritza_Guaman","51373445","","1312","20161025120229"
"60","Anna_Incerti","11625128","","9039","20161027232453"
"841","Kelsey_Card","50984286","","10012","20161101151045"
"307","Genevieve_LaCaze","36322008","","12154","20161102044622"
"482","Nooralotta_Neziri","39964176","","5804","20161026224724"
"625","Jip_Vastenburg","47550368","","3318","20161023051413"
"1074","Salomé_Kora","51379852","","1297","20161025215253"
"476","Margherita_Magnani","39817190","","5489","20161021181443"
"1120","Oksana_Shkurat","51514204","","1222","20161023213400"
"344","Nadine_Broersen","36621613","","5256","20161019064111"
"799","Viktoriia_Poliudina","49621368","","4670","20161025174927"
"759","Kelsey-Lee_Roberts","47665564","","2698","20161107195922"
"615","Nancy_Chepkwemoi","47409977","","6204","20160909202910"
"796","Mathilde_Andraud","49494791","","3259","20161105060344"
"760","Maria_Andrejczyk","47665570","","3918","20161027010225"
"203","Tori_Pena","28243450","","6326","20161015081351"
"146","Nadiya_Dusanova","22282005","","4981","20161013032312"
"1137","Yesenia_Miranda","51591890","","1186","20161024230231"
"195","Neringa_Aidietytė","28149174","","4786","20161015075654"
"38","Simona_La_Mantia","7724604","","9960","20161022094856"
"640","Núbia_Soares","47602366","","3675","20161003165044"
"1005","Silvia_Paredes","51330748","","1369","20161025150223"
"763","Liina_Luik","47672690","","2890","20161023054231"
"217","Patrícia_Mamona","28691921","","6393","20161015093716"
"421","Maureen_Jelagat_Maiyo","36703157","","5076","20161019154342"
"525","Alia_Saeed_Mohammed","42204724","","5229","20160927132141"
"1119","Ekaterina_Tunguskova","51513805","","1202","20161023221318"
"179","Marika_Popowicz-Drapała","26777007","","12407","20161019222117"
"975","Rose_Chelimo","51326883","","4142","20161101125458"
"735","Rachel_Tallent","47664650","","1652","20161107195922"
"429","Beverly_Ramos","36862206","","11442","20161101215506"
"218","Natallia_Viatkina","28696617","","3021","20161024194622"
"488","Morgan_Lake","40122632","","12716","20161105215752"
"550","Shanice_Craft","43743465","","5419","20161023124026"
"138","Brittney_Reese","19205365","","14501","20161110190334"
"672","Viktoriya_Tkachuk","47620086","","2877","20161023053447"
"258","Nikkita_Holder","33002101","","4794","20161112180001"
"439","Agnieszka_Szwarnóg","37297320","","942","20160923030054"
"665","Gunta_Latiševa-Čudare","47614297","","3343","20161003185249"
"287","Andressa_de_Morais","36152804","","8053","20161020091443"
"331","Denia_Caballero","36552069","","10396","20161019030442"
"703","Devynne_Charlton","47657921","","5919","20161023053859"
"303","Tatjana_Pinto","36298298","","2404","20161018161450"
"939","Nirmala_Sheoran","51290033","","3269","20161107233821"
"1120","Oksana_Shkurat","51514204","","1222","20161023213400"
"832","Evelis_Aguilar","50689442","","4864","20161001142144"
"392","Zsófia_Erdélyi","36672700","","3359","20161019122733"
"666","Lisneidy_Veitia","47614332","","3306","20161003185249"
"123","Marina_Nichișenco","18982971","","5184","20161012065320"
"1033","Zurian_Hechavarría","51361334","","2761","20161024062323"
"1002","Els_Rens","51330667","","1644","20161025160259"
"932","Jackie_Baumann","51223190","","1831","20161024054420"
"297","Hilary_Stellingwerff","36294221","","3559","20161009011914"
"677","Auriol_Dongmo_Mekemnang","47635509","","5221","20161024204917"
"26","Anneisha_McLaughlin-Whilby","6681271","","9111","20161021042239"
"485","Dalilah_Muhammad","40092174","","10775","20161021223131"
"357","Tan_Jian","36643068","","2828","20161020091615"
"184","Katarzyna_Kowalska","27599355","","9944","20161015060334"
"204","Grace_Wanjiru","28258667","","7606","20161025120229"
"482","Nooralotta_Neziri","39964176","","5804","20161026224724"
"108","Natallia_Mikhnevich","18891725","","7660","20161012064430"
"682","Fernanda_Martins","47635897","","5278","20161023053453"
"537","Leontia_Kallenou","43237737","","15522","20161024150410"
"793","Wilma_Murto","49280177","","4430","20161106141105"
"798","Yuan_Qiqi","49593075","","3024","20161023121143"
"728","Aisha_Praught","47662938","","4583","20161023054226"
"39","Cleopatra_Borel","7885077","","13092","20161022133559"
"79","Olivia_Borlée","13213550","","4713","20161003104936"
"365","Karen_Gallardo","36647414","","10175","20161019085706"
"605","Lupita_González","47301387","","6892","20161021014804"
"746","Yuliya_Levchenko","47665000","","2804","20161107195922"
"465","Kamila_Lićwinko","38743248","","6432","20161021043623"
"934","Peace_Uko","51232273","","4782","20161013183618"
"819","Andrea_Miklós","49888910","","2599","20161025215253"
"1104","Kauiza_Venancio","51506584","","1729","20161020184839"
"606","Christin_Hussong","47311686","","6955","20161012173457"
"371","Jessica_Draskau-Petersson","36647987","","3130","20161019085708"
"121","Iryna_Novozhylova","18982468","","3293","20161012065320"
"696","Ayuko_Suzuki","47652089","","3127","20161023053849"
"888","Chanice_Chase-Taylor","51073816","","1853","20161024052257"
"483","Muriel_Coneo","40032397","","13782","20161107125213"
"104","Wang_Zheng_(hammer_thrower)","18716049","","3581","20161023080202"
"304","Lauren_Wells_(athlete)","36312820","","8194","20161102020657"
"176","Eglė_Balčiūnaitė","26537534","","3121","20161021140453"
"321","Gloria_Hooper_(athlete)","36461187","","4671","20161018212914"
"502","Emel_Dereli","40723814","","7121","20161024210432"
"601","Nadine_Visser","47270036","","7747","20161106111809"
"522","Gudaf_Tsegay","42176433","","2670","20161021150504"
"998","Hua_Shaoqing","51330525","","1743","20161025174935"
"591","Lorraine_Ugen","46819437","","7465","20161103172148"
"1075","Tetyana_Melnyk","51384400","","3276","20161025215253"
"727","Zhang_Xinyan","47662851","","2376","20161107195922"
"1091","Vijona_Kryeziu","51410853","","1782","20161020203947"
"275","Michelle-Lee_Ahye","35497173","","5589","20161027223821"
"771","Irina_Smolnikova","47702191","","2062","20161107204300"
"330","Laura_Weightman","36527797","","5110","20161019015658"
"766","Sonia_Samuels","47679417","","1964","20161025190238"
"792","Alice_Aprot_Nawowuna","49131444","","7994","20161023221318"
"78","Caterine_Ibargüen","13073133","","23564","20161025022310"
"291","Alina_Fyodorova","36278317","","4876","20161018150428"
"256","Kateřina_Cachová","32885763","","5739","20161024230231"
"761","Kateryna_Derun","47665574","","3802","20161107195922"
"962","Natthaya_Thanaronnawat","51323630","","2340","20161025140236"
"393","Yolimar_Pineda","36672746","","4033","20161019122733"
"890","Farah_Jacques","51073954","","1593","20161025215334"
"770","Sitora_Hamidova","47702165","","2138","20161107204300"
"8","Christina_Obergföll","2534865","","9153","20161112110204"
"686","Charline_Mathias","47636091","","4406","20161003221749"
"441","Viktória_Madarász","37302018","","3236","20160902095832"
"1044","Júlia_Takács","51373329","","1333","20161025120229"
"2","Allyson_Felix","1027173","","42368","20161111154317"
"527","Phyllis_Francis","42227912","","5889","20161022060219"
"484","Kierre_Beckles","40081512","","8694","20161021221028"
"525","Alia_Saeed_Mohammed","42204724","","5229","20160927132141"
"878","Veronica_Inglese","51046668","","1651","20161023221318"
"368","Geisa_Arcanjo","36647578","","10463","20161019085708"
"894","Annika_Newell","51074223","","1675","20161101133042"
"537","Leontia_Kallenou","43237737","","15522","20161024150410"
"41","Zhang_Wenxiu","8659382","","9431","20161023064851"
"201","Claudia_Rath","28237046","","4331","20161015081351"
"823","Kendell_Williams","50112688","","3881","20161029064710"
"540","Ese_Brume","43461585","","8622","20161005021250"
"174","Nataliia_Lupu","26528293","","6106","20160925224255"
"389","Lim_Kyung-hee","36672040","","1462","20161019122733"
"692","Vitória_Cristina_Rosa","47646138","","4832","20161023053847"
"219","Jiřina_Ptáčníková","28697039","","9797","20161027004312"
"842","Nwanneka_Okwelogu","50985273","","7291","20161024210402"
"277","Shaunae_Miller","35551913","","5854","20161020060851"
"1045","Ángela_Castro","51373373","","2786","20161025120229"
"307","Genevieve_LaCaze","36322008","","12154","20161102044622"
"872","Diana_Khubeseryan","51046400","","2312","20161024052215"
"215","Jana_Velďáková","28690896","","6737","20161020082120"
"328","Dailín_Belmonte","36502699","","9097","20161019005307"
"104","Wang_Zheng_(hammer_thrower)","18716049","","3581","20161023080202"
"657","Erin_Teschuk","47609335","","5520","20161112154918"
"779","Andrea_Deelstra","47956683","","1208","20161025174927"
"623","Rebekka_Haase","47544424","","4383","20161023051406"
"485","Dalilah_Muhammad","40092174","","10775","20161021223131"
"735","Rachel_Tallent","47664650","","1652","20161107195922"
"738","Miranda_Melville","47664681","","1968","20161107195922"
"774","Niluka_Geethani_Rajasekara","47702291","","2799","20161109231916"
"725","Yuka_Takashima","47662594","","3539","20161107195922"
"1077","Ahn_Seul-ki","51384856","","3666","20161109081156"
"238","Alina_Talay","31222740","","9286","20161016160046"
"808","Grace_Claxton","49842489","","3782","20161023221254"
"270","Angelika_Cichocka","35201803","","5700","20161018055732"
"136","Rosângela_Santos","19097181","","11243","20161012015657"
"692","Vitória_Cristina_Rosa","47646138","","4832","20161023053847"
"513","Nicky_van_Leuveren","42157429","","1264","20161025215253"
"523","Danuta_Urbanik","42176460","","3715","20161022213925"
"754","Alena_Sobaleva","47665397","","3751","20161107195922"
"878","Veronica_Inglese","51046668","","1651","20161023221318"
"399","Mariely_Sánchez","36702584","","7794","20160923040505"
"755","Malwina_Kopron","47665428","","3099","20161107195922"
"475","Maria_Benedicta_Chigbolu","39811863","","2980","20161021181438"
"959","Daryll_Neita","51316562","","3312","20161024061027"
"949","Mazoon_Al-Alawi","51311720","","1663","20161020070449"
"293","Lynsey_Sharp","36283810","","14116","20161018154106"
"699","Trihas_Gebre","47652139","","3522","20161017222809"
