"865","Nesey_Gallons","23445515","","2943","20160915225240"
"488","Robert_John","6554367","","5231","20161104062932"
"1365","Garry_Sitarski","51423294","","894","20161029044123"
"308","Marty_Phillips","2796515","","1660","20161111154023"
"895","Ravi_Hutheesing","24617094","","5792","20161106021738"
"830","Ed_Masuga","22175047","","3683","20160915201723"
"531","Zack_Hexum","7959807","","2761","20161103034747"
"196","Mark_Mulcahy","1482275","","5495","20161109124451"
"35","Harry_Nilsson","147406","","40520","20161112022558"
"577","Michael_Davis_(bassist)","9476653","","7215","20161106122731"
"253","Dean_Friedman","2026045","","17134","20161111150304"
"995","Nicola_Paone","28931986","","9427","20161026235649"
"508","David_Jenkins_(musician)","7141594","","2433","20161030220439"
"1152","Ashley_Parker_Angel","36787219","","19432","20161105124325"
"1007","Stephen_P._Anderson","29486160","","3806","20161030081355"
"783","Jason_Reeves_(songwriter)","19395785","","23665","20161104060206"
"243","Robert_Lamm","1962029","","9669","20161111131611"
"1311","Victor_Villarreal","47614231","","7141","20161025032344"
"365","Corbin_Bleu","3591242","","38449","20161112181351"
"1266","Erik_Frandsen","43059509","","1619","20161105095540"
"308","Marty_Phillips","2796515","","1660","20161111154023"
"512","Tim_Rutili","7163671","","3693","20161024050521"
"121","Paleface_(musician)","650448","","13072","20161109101639"
"878","Alex_Bevan","23890436","","9309","20161009205721"
"248","Davitt_Sigerson","1990398","","4758","20161111135733"
"62","Chris_Isaak","234978","","21179","20161106124843"
"992","Big_Ali","28491090","","13558","20161105035015"
"477","Neal_Casal","6206543","","23830","20161019133840"
"906","Rob_Balder","25011593","","8291","20161029012638"
"526","Phil_Seymour","7732230","","8286","20161030233651"
"860","Johnsmith","23286505","","1568","20161029043817"
"30","Steven_Soles","98036","","3075","20161031060947"
"1247","Tae_Brooks","41907489","","12344","20161106045244"
"1098","Cliff_Eberhardt","33713505","","3149","20161028035253"
"1023","Jason_JetPlane","30275815","","2854","20160904144225"
"1115","Thollem_McDonas","34605974","","12465","20161024073345"
"525","John_Dufilho","7708745","","1780","20160830190148"
"846","David_Batteau","22785100","","2886","20161024042435"
"789","Jimmy_McLoud","19612036","","2524","20160915141025"
"727","Tom_Intondi","16025784","","1529","20161029005840"
"378","Shawn_Phillips","4028844","","8335","20161111065842"
"342","El_Vez","3252793","","6345","20161028052851"
"619","David_Blue_(musician)","10947451","","6267","20161027035643"
"313","Jermaine_Stewart","2842637","","10179","20161111204702"
"1103","Ezra_Kire","33797370","","9757","20161105002723"
"1350","Bobby_Lynn_Shehorn","50284720","","9198","20161014020942"
"42","Christopher_Cross","163479","","27443","20161106081123"
"734","David_Gans_(musician)","16697572","","12703","20161030001616"
"120","Dennis_DeYoung","648294","","26801","20161109101005"
"1100","Mark_Mangold","33743024","","4148","20161023073048"
"1355","Brandon_Kellum","50776917","","7892","20161030030553"
"92","Rozz_Williams","422678","","27017","20161108183108"
"1286","Mike_Blakely","45165668","","4537","20161001225616"
"25","David_Cassidy","88604","","36126","20161105164405"
"938","Cyrus_\"Buddy\"_Kalb","26176750","","2405","20160429100035"
"1075","Panama_Red_(musician)","32703845","","5802","20160625164903"
"732","DJ_Kane","16599608","","8543","20161025144316"
"1212","Andrew_Goldstein_(musician)","39638055","","6810","20161010150927"
"1231","Brian_Wright_(musician)","40821623","","6765","20161030174702"
"858","Brian_Karscig","23268581","","10194","20161108060813"
"190","James_McMurtry","1417553","","10821","20161111010631"
"299","Chris_Brown","2627820","","101992","20161112140532"
"250","Jason_Martin_(musician)","2015265","","3280","20161110182243"
"58","Bill_Withers","213804","","34307","20161111065035"
"147","Mason_Jennings","927729","","9004","20161110032554"
"845","Joe_Pug","22727924","","29374","20161104150504"
"1287","Tor_Miller","45689851","","5987","20161031000217"
"487","Bill_Deasy","6506851","","13960","20161102084243"
"563","Griffin_House_(musician)","9048993","","7875","20161105125629"
"1348","Parker_McGee","50072831","","6168","20161013173406"
"1295","Grayson_Capps","46423234","","3473","20161002070732"
"928","Gib_Guilbeau","25731026","","5178","20161102170532"
"1353","Busta_Jones","50530206","","3926","20161031064722"
"1052","Morgan_Taylor_Reid","31984594","","13692","20161105061522"
"462","Bill_Hudson_(singer)","5913529","","4964","20161104051854"
"908","Craig_Marshall","25052385","","3479","20161024115925"
"335","Jim_Henry_(musician)","3181086","","1337","20160810100913"
"406","Rod_Picott","4578145","","4669","20161111162748"
"933","Harvey_Sid_Fisher","25998361","","5899","20161105004848"
"724","Eric_Troyer","15932511","","3185","20161029005838"
"564","Harry_Barris","9085050","","12835","20161023134801"
"826","Nick_Monteleone","21879849","","3782","20160915193947"
"1029","Chris_Barth","30774198","","7442","20161024003929"
"800","Robert_Francis_(musician)","20209860","","8409","20161104024408"
"757","Jim_Abel","17957092","","3024","20161030024521"
"800","Robert_Francis_(musician)","20209860","","8409","20161104024408"
"702","Eric_Arjes","15209619","","4028","20161031053252"
"114","Gary_Cherone","577031","","14746","20161109070602"
"987","Kevin_T._Anderson","28161836","","4908","20161027193916"
"1364","Kyle_Dion","51413024","","2540","20161012214424"
"487","Bill_Deasy","6506851","","13960","20161102084243"
"1330","Connor_Leimer","48683046","","3442","20161031014454"
"476","Paul_Levinson","6173486","","19177","20161104070003"
"1214","Mark_Etheredge","39765893","","7211","20161101002812"
"623","Squire_Parsons","11058673","","6056","20161027071431"
"567","Gamble_Rogers","9114269","","6947","20161105174038"
"299","Chris_Brown","2627820","","101992","20161112140532"
"173","Mitch_Allan","1251903","","14642","20161110173703"
"424","Steve_Perry_(Oregon_musician)","4920888","","13694","20161112054024"
"996","Fred_Koller","28982495","","11877","20161009123657"
"1074","Todd_Carey","32698664","","15393","20161030094159"
"951","Damion_Suomi","26766179","","6102","20160916035005"
"14","Utah_Phillips","55247","","19960","20161111230440"
"1154","Charlie_Mars","36832370","","6886","20161030131406"
"1263","Adam_Zwig","42968475","","11566","20161030215426"
"1057","Dick_Campbell_(singer-songwriter)","32227421","","9541","20161024074802"
"59","Layne_Staley","216774","","54242","20161111095444"
"518","Owain_Phyfe","7309499","","9431","20161022043538"
"966","Patrick_Stolley","27352468","","4326","20161030073001"
"1000","Jonathan_George","29072370","","4008","20161106084101"
"308","Marty_Phillips","2796515","","1660","20161111154023"
"370","Ray_Boltz","3653134","","5833","20161111003123"
"923","Dean_Fasano","25408774","","8938","20161103143422"
"655","John_Braheny","12845479","","2652","20161030030223"
"855","Salim_Nourallah","23177724","","6773","20161104055848"
"325","Moon_Martin","3032421","","2697","20161102102830"
"244","Oscar_Brown","1970744","","15672","20161111132836"
"1138","Dick_Weissman","36072736","","2719","20160921135458"
"1052","Morgan_Taylor_Reid","31984594","","13692","20161105061522"
"1280","Keith_McEachern","44537659","","3484","20161030232900"
"149","Derek_Webb","937940","","19156","20161110035247"
"251","Frank_Miller_(singer)","2021138","","837","20161028034945"
"136","Ross_Bagdasarian_Sr.","755989","","15456","20161109130620"
"671","Mt._Egypt","13512577","","1377","20161028235838"
"266","Josh_Rouse","2187552","","9610","20161112033608"
"1227","Wynne_Paris","40288736","","11984","20161030170534"
"136","Ross_Bagdasarian_Sr.","755989","","15456","20161109130620"
"61","Phil_Lesh","232819","","14960","20161106122835"
"764","Stephen_Ashbrook","18277448","","5492","20161030084826"
"1059","Matthew_Griswold_(singer)","32256728","","6077","20161031053252"
"428","Jim_Post","4990958","","5950","20161112064923"
"246","Christopher_Massey","1986807","","6715","20161111183621"
"466","Del_James","6000097","","3323","20161028105728"
"289","M._Shadows","2456471","","10553","20161112090641"
"699","Jim_Keller","15035787","","4607","20161029224104"
"1241","Carter_Beckworth","41607213","","6752","20161030191829"
"862","Jeremy_Gloff","23394349","","9013","20160915225236"
"140","Tom_Smith_(filker)","828009","","9879","20161109161757"
"536","Marcus_James","8202036","","786","20161102164325"
"75","Bill_Callahan_(musician)","324936","","12815","20161107085411"
"687","Dante_Henderson","14148437","","2044","20161105041818"
"592","Joel_Rafael","9911425","","11288","20161103132618"
"1366","Dre_Babinski","51660074","","15580","20161109154503"
"1113","Jack_McTamney","34585445","","3818","20160916131749"
"666","Justin_Russo","13357156","","2782","20161028235155"
"1225","Tom_Miller_(musician)","40236920","","9997","20160928003744"
"189","Tom_DeLonge","1413814","","59303","20161112065421"
"535","Will_Kimbrough","8165811","","6686","20161102110427"
"1270","Eli_Lieb","43250946","","14499","20161106064312"
"1256","Oren_Yoel","42306625","","4030","20161030210039"
"979","Warren_Entner","27859809","","12066","20161105073849"
"848","Drew_Danburry","22857973","","8520","20161029042326"
"471","Tom_Verlaine","6061619","","12250","20161028153706"
"1282","Evvy_Pedder","44627121","","1854","20160917070257"
"172","Dean_Reed","1232544","","13148","20161110163240"
"1002","Ben_Weaver","29140266","","4872","20161031053252"
"886","Gram_LeBron","24290786","","6972","20161029050837"
"1142","Randle_Chowning","36299823","","3191","20161030024759"
"546","Ed_Wool","8413478","","6985","20161103183422"
"1028","JMSN","30664417","","21086","20161105044529"
"1144","Redd_Harper","36321529","","3408","20160810044951"
"443","Rodriguez_(singer-songwriter)","5390588","","31241","20161112115033"
"757","Jim_Abel","17957092","","3024","20161030024521"
"1341","Ralph_White","49496935","","20916","20161031024146"
"753","Val_Emmich","17658450","","13964","20161023124111"
"454","Davey_von_Bohlen","5733014","","8190","20161112150257"
"849","Casey_Shea","22859417","","6808","20161030051651"
"495","Richard_Barone","6743012","","29064","20161105082532"
"1037","Joseph_Lee_Hooker","31220895","","3746","20160722204316"
"567","Gamble_Rogers","9114269","","6947","20161105174038"
"675","Reggie_Knighton","13692919","","6544","20161105073849"
"953","Steve_Soboslai","26860889","","5199","20161029062800"
"1332","Chase_Holfelder","48876543","","7884","20161109111555"
"450","Ronnie_Day","5645019","","4028","20161112182709"
"1147","Joseph_Vincent","36601585","","4811","20161030125338"
"1014","Bob_Gentry","30080817","","4491","20161105042218"
"1307","Mike_Snowden","47182347","","8494","20161029020804"
"44","Jim_Croce","166915","","22008","20161111200709"
"490","Jonathan_Jones_(musician)","6569855","","4850","20161029224112"
"909","Chris_Volpe","25052995","","13822","20161104222953"
"387","Paul_Barrere","4197265","","4946","20161111091723"
"317","Michael_Quatro","2873593","","3508","20161111230115"
"975","Josh_Ostrander","27600122","","2824","20161104102735"
"856","Mike_Bones","23246063","","2965","20161029043814"
"810","Roderick_Taylor","20827955","","5420","20161105113842"
"906","Rob_Balder","25011593","","8291","20161029012638"
"66","David_Crosby","241167","","39737","20161106131439"
"479","Parry_Gripp","6226107","","4872","20161107194546"
"619","David_Blue_(musician)","10947451","","6267","20161027035643"
"331","Andrew_Calhoun","3139666","","2331","20161028035253"
"981","Tyler_Blanski","28009739","","7157","20161031053325"
"1172","Phillip_LaRue","37331072","","7540","20161104091600"
"387","Paul_Barrere","4197265","","4946","20161111091723"
"1003","Kouros_Shahmiri","29147553","","2641","20161014123820"
"190","James_McMurtry","1417553","","10821","20161111010631"
"1146","Alex_Wong_(producer,_musician)","36466447","","11347"
"191","Jimmy_Griffin","1437055","","9892","20161111160706"
"807","Todd_Alsup","20666775","","6838","20161030035103"
"502","Terence_Boylan","6981541","","3333","20161030141124"
"1106","Peasant_(artist)","34136971","","6412","20161030104421"
"691","Adam_Hood","14511494","","7545","20161104044447"
"671","Mt._Egypt","13512577","","1377","20161028235838"
"1201","Gregg_Tripp","39040015","","3107","20161013090244"
"485","Danny_O'Keefe","6444736","","5699","20161031053958"
"616","Michael_Lord_(music)","10796915","","10678","20161025144711"
"1319","David_Mobley_(musician)","47779915","","8019","20161109093059"
"59","Layne_Staley","216774","","54242","20161111095444"
"1332","Chase_Holfelder","48876543","","7884","20161109111555"
"260","Terry_Cashman","2157276","","3748","20161025144050"
"915","Doug_Yoel","25143243","","712","20161029055125"
"804","State_Shirt","20401541","","4269","20160915154351"
"926","Andrew_Carlton","25582858","","1535","20161112190122"
"496","Matthew_Perryman_Jones","6834723","","5240","20161103035032"
"851","Jay_Chevalier","22947883","","9009","20161110230733"
"1112","Kyle_Patrick","34544255","","10928","20161106193025"
"27","Terry_Scott_Taylor","90273","","17867","20161105051328"
"116","Isaac_Hanson","594293","","4200","20161109073816"
"1335","Shir_Yaakov","49027036","","6444","20161031020137"
"893","Ryland_Bouchard","24581505","","10727","20161104211709"
"318","David_Wolfenberger","2893413","","9197","20161024021329"
"553","Jason_McKeever","8721488","","4917","20161104203149"
"168","Terry_Melcher","1194878","","14092","20161110145944"
"369","Slaid_Cleaves","3629818","","7798","20161110232539"
"354","Randell_Kirsch","3399502","","5990","20161106123617"
"456","Dan_Peek","5814016","","21643","20161112175448"
"209","Terence_Trent_D'Arby","1605509","","15564","20161111060856"
"478","Randy_Ciarlante","6215730","","4247","20161104091011"
"167","Tommy_Roe","1184541","","9000","20161110143343"
"1211","Ted_Quinn","39495954","","4635","20161107200614"
"130","Al_Jardine","706054","","13220","20161109115551"
"1274","Sean_Danielsen","43670784","","20666","20161106153640"
"547","Andrew_Lynch_(singer-songwriter)","8439847","","3865","20161103232402"
"66","David_Crosby","241167","","39737","20161106131439"
"470","Mike_Smith_(singer-songwriter)","6057077","","2897","20161028142611"
"1009","Scott_Logan_(musician)","29524209","","6112","20161104125820"
"1090","Billy_\"Harp\"_Hamilton","33392154","","3519","20161102151834"
"747","Soren_Anders","17576486","","4325","20160928071040"
"941","John_Grant_(musician)","26262442","","13909","20161031051913"
"1224","Justin_Levinson","40232603","","16812","20161030165645"
"76","Greg_Brown_(folk_musician)","331952","","7662","20161107100729"
"417","Jadon_Lavik","4857310","","3767","20161112043336"
"64","Paul_Stookey","237326","","9549","20161106125442"
"269","Lou_Christie","2202646","","21251","20161112035152"
"988","Tim_Hawkins","28218075","","3327","20161105033928"
"990","Walter_Parks","28356404","","4700","20161024010231"
"1202","Elliot_Weber","39114948","","3423","20161103190443"
"799","Jonah_Koslen","20139323","","3707","20161024020756"
"97","Matt_Nathanson","442710","","20643","20161109004338"
"1264","Sean_Douglas_(songwriter)","42977945","","8797","20161013113453"
"1098","Cliff_Eberhardt","33713505","","3149","20161028035253"
