"562","Shealeigh","35409264","","4121","20161009123657"
"624","Vicki_Yohe","41405425","","3655","20161106040552"
"88","Judee_Sill","1847124","","13948","20161111184727"
"629","Roxanne_Fontana","42577496","","16007","20160917060441"
"436","Jen_Foster","24446700","","12142","20161104070751"
"68","Charlotte_Martin","1224100","","13955","20161110161055"
"192","Vicci_Martinez","5564076","","7627","20161112161200"
"377","Anomie_Belle","20142251","","12267","20161031053925"
"659","Danielle_Taylor_(musician)","46926639","","9319","20161002153024"
"664","Chloe_Angelides","47865224","","6491","20161016053607"
"109","Angela_Ammons","2475222","","4265","20161111090249"
"668","Ari_Lennox","48760011","","4727","20161112174217"
"659","Danielle_Taylor_(musician)","46926639","","9319","20161002153024"
"335","Danielia_Cotton","16770038","","8877","20161029011756"
"552","Audra_the_Rapper","34605819","","7162","20161105094532"
"98","Phoebe_Snow","2233142","","22452","20161112042543"
"291","Aimee_Allen","12499283","","9707","20161030233957"
"630","Molly_Kate_Kestner","43033703","","4808","20161111110236"
"546","Jennifer_O'Connor_(musician)","34071242","","11760","20161105090931"
"661","Destiny_Clark","47434939","","6834","20161106052518"
"452","Michelle_Bell","26171668","","18472","20161029061028"
"25","Charlotte_Caffey","409351","","4208","20161108090441"
"586","Leslie_Winer","37475250","","6137","20160924220654"
"643","Kyle_Carey","44612890","","6777","20161106084111"
"468","Cindy_Alexander","27399581","","5384","20161108000100"
"523","Quinn_Marston","32323883","","13673","20161030093306"
"513","Rebecca_Loebe","31536512","","9885","20161106022138"
"271","Ruby_Wright","10526295","","1769","20161026071052"
"452","Michelle_Bell","26171668","","18472","20161029061028"
"118","June_Millington","2638641","","58505","20161112142722"
"487","Amy_Speace","28964961","","5203","20161030025506"
"22","Tobi_Vail","362121","","22592","20161107123550"
"191","Julie_Silver","5523185","","3291","20161112150819"
"32","Katy_Rose","555592","","4784","20161109060957"
"67","Laura_Veirs","1181471","","7959","20161110142453"
"568","Kat_Edmonson","35836571","","14098","20161110002337"
"479","Annie_Little","27987273","","2817","20161105033021"
"219","Juanita_Coulson","7339418","","4835","20161104082104"
"654","Colleen_D'Agostino","46440646","","9923","20161031001734"
"24","St._Vincent_(musician)","402052","","51106","20161111161052"
"303","Brandi_Shearer","13881166","","3797","20161108202103"
"263","Sarah_Dougher","9952115","","7971","20161104184723"
"528","Erica_Buettner","32734936","","7196","20161104215210"
"548","Erin_Bowman","34243298","","8000","20161105091353"
"129","Yuna_Ito","3046294","","18915","20161112053609"
"338","Sheila_Raye_Charles","16837998","","916","20161103192211"
"308","Shauna_Burns","14308967","","7818","20161024050456"
"446","Amy_Correia","25726773","","7760","20161024115531"
"489","Clara_Chung","29067549","","9873","20161105040807"
"520","Mavie_Marcos","32165790","","6964","20161030092848"
"191","Julie_Silver","5523185","","3291","20161112150819"
"469","Shae_Fiol","27515700","","3803","20161030084823"
"452","Michelle_Bell","26171668","","18472","20161029061028"
"113","Susannah_Melvoin","2541002","","4163","20161112110831"
"82","Kristine_W","1640746","","14821","20161111064444"
"344","Dawn_Landes","17199827","","10955","20161030234226"
"661","Destiny_Clark","47434939","","6834","20161106052518"
"235","Martha_Munizzi","8286189","","18911","20161028122911"
"404","Tina_Parol","22555747","","5702","20160920100712"
"155","Anna_Domino","3683588","","8622","20161111012839"
"518","Michaela_Shiloh","31840571","","6941","20161111205720"
"176","Laura_Dawn","4788745","","7753","20161112034126"
"349","Leslie_Mills","17701849","","10524","20161104072401"
"482","Veronique_Chevalier","28228560","","13118","20161105033928"
"20161105061630",,,,,
"660","Brigitte_DeMeyer","46933111","","3760","20161106105806"
"378","Jenny_Queen","20336603","","4728","20161105001138"
"96","Elizabeth_Elmore","2194239","","2256","20160916162149"
"103","Kathleen_York","2331470","","9149","20161112065145"
"178","Mary_Lorson","4886187","","4399","20161112050315"
"580","Kaila_Yu","36650285","","2581","20161107093036"
"176","Laura_Dawn","4788745","","7753","20161112034126"
"562","Shealeigh","35409264","","4121","20161009123657"
"168","Maria_Taylor","4463682","","11319","20161111133446"
"640","Kimmie_Rhodes","44190354","","24621","20161030232214"
"242","Nicole_Willis","8643248","","18841","20161029165419"
"136","Wendy_Bucklew","3139228","","1328","20160810092304"
"173","Carolyn_Hester","4668986","","8749","20161111224959"
"425","Vaughan_Penn","23890699","","2043","20161104063202"
"327","Ellis_(singer-songwriter)","15967544","","4271","20161104060037"
"243","Otep_Shamaya","8712521","","9981","20161104194512"
"573","Allison_Weiss","35954697","","6262","20161105113333"
"404","Tina_Parol","22555747","","5702","20160920100712"
"379","Debby_Ryan","20437813","","40735","20161105110254"
"631","Monica_Lionheart","43078489","","12767","20161030221210"
"197","Kristen_Henderson","5736941","","7677","20161112150940"
"522","Sarah_Sadler","32257758","","1705","20161104195818"
"520","Mavie_Marcos","32165790","","6964","20161030092848"
"263","Sarah_Dougher","9952115","","7971","20161104184723"
"392","Felicia_Barton","21505610","","4693","20161104123019"
"53","Edie_Brickell","932714","","11681","20161110034234"
"38","Nikki_McKibbin","696510","","10644","20161109114101"
"366","Mandy_Ventrice","18967727","","11894","20161023113905"
"537","Annie_Williams_(singer)","33152137","","3065","20161108200223"
"643","Kyle_Carey","44612890","","6777","20161106084111"
"90","Tracy_Bonham","1924467","","15764","20161111123222"
"392","Felicia_Barton","21505610","","4693","20161104123019"
"324","Brooke_White","15796078","","36513","20161109083300"
"9","Lalaine","156103","","15972","20161110201417"
"233","Amanda_Somerville","8152636","","16415","20161110064423"
"112","Jordis_Unga","2512398","","11824","20161112103602"
"548","Erin_Bowman","34243298","","8000","20161105091353"
"215","Nancy_Priddy","7132329","","4607","20161106231823"
"365","Billy_Lawrence","18929597","","5094","20161030024245"
"115","Annie_Hayden","2570871","","1416","20161111105211"
"415","Janis_Hansen_(singer)","23283034","","5673","20160824041732"
"182","Meghan_Andrews","5080323","","3433","20161105010648"
"451","Ingrid_Croce","26126940","","11340","20161023072210"
"475","Laura_Shigihara","27872450","","7320","20161106071335"
"516","Jonnie_and_Brookie","31653095","","7494","20161030030605"
"311","Stephanie_Dosen","14682847","","5747","20161024045115"
"58","Amanda_Seyfried","1020882","","42853","20161111152446"
"158","Dee_Dee_Phelps","4082031","","10970","20161111072931"
"629","Roxanne_Fontana","42577496","","16007","20160917060441"
"105","Patty_Larkin","2366183","","6725","20161112071515"
"569","Robin_Holcomb","35874752","","3285","20161105112759"
"371","Rosie_Vela","19204050","","4539","20161105091941"
"686","Elise_Trouw","51675923","","5554","20161106203000"
"54","Vienna_Teng","964258","","11972","20161110045558"
"306","Linda_Waterfall","14221280","","3554","20161031053647"
"74","Rachael_Sage","1363822","","8692","20161110222729"
"662","VÉRITÉ","47638105","","18296","20161031011441"
"4","Melissa_Etheridge","84275","","52145","20161108233729"
"534","Claudia_Lee","33091918","","6595","20161106143100"
"564","Katie_Carroll","35643268","","1872","20161009185832"
"599","Natalie_LaRue","38385058","","7389","20160926062300"
"59","Dory_Previn","1042729","","18594","20161111163235"
"276","Rosalie_Sorrels","10853029","","16539","20161110225914"
"180","Miranda_Lee_Richards","5016411","","3528","20161112070033"
"552","Audra_the_Rapper","34605819","","7162","20161105094532"
"298","Pamela_McNeill","12963735","","2651","20161031053252"
"627","Manting_Chan","42199290","","6965","20161111053909"
"126","Nichole_Nordeman","2932892","","5717","20161112030733"
"182","Meghan_Andrews","5080323","","3433","20161105010648"
"101","Twinkie_Clark","2319178","","5578","20161112063705"
"94","Lennon_Murphy","2109574","","9111","20161111221614"
"599","Natalie_LaRue","38385058","","7389","20160926062300"
"400","Cindy_Lee_Berryhill","22367823","","6341","20161029040440"
"379","Debby_Ryan","20437813","","40735","20161105110254"
"100","Jen_Wood","2310412","","4370","20161112062839"
"588","Doe_Paoro","37547870","","6776","20161105135003"
"429","Maria_Armoudian","24049533","","2965","20161026234522"
"242","Nicole_Willis","8643248","","18841","20161029165419"
"354","Brianna_Taylor","18255556","","9375","20161108092408"
"277","Bonnie_Hayes","10902865","","7555","20161101112859"
"53","Edie_Brickell","932714","","11681","20161110034234"
"166","Azalia_Snail","4377552","","13185","20161111121156"
"85","Beth_Hart","1795306","","15533","20161111095813"
"127","Joyce_Sims","3002757","","8149","20161112042507"
"166","Azalia_Snail","4377552","","13185","20161111121156"
"288","Pamala_Stanley","12334427","","9695","20161112161937"
"35","Vonda_Shepard","649101","","9754","20161109101635"
"621","Shonna_Tucker","40906398","","6012","20161108152327"
"650","Nedra_Johnson","45608497","","2809","20161002035538"
"339","Blaire_Reinhard","16850308","","5793","20161103235622"
"338","Sheila_Raye_Charles","16837998","","916","20161103192211"
"233","Amanda_Somerville","8152636","","16415","20161110064423"
"620","Whitton_(singer-songwriter)","40716504","","4842","20161106025140"
"255","Inara_George","9453696","","6503","20161028155621"
"77","Magdalen_Hsu-Li","1484601","","9373","20161111033204"
"538","Scarlett_Santana","33168666","","10034","20161103101130"
"269","Florence_Reece","10321375","","5934","20161104200640"
"167","Karen_Lawrence_(singer-songwriter)","4408869","","2971","20161022074658"
"279","Shanti_Wintergate","11168942","","21484","20161028223325"
"67","Laura_Veirs","1181471","","7959","20161110142453"
"91","Hope_Sandoval","1960713","","16659","20161112124228"
"649","Anna_Vogelzang","45318338","","8788","20161002002232"
"658","Polina_(Polina_Goudieva)","46875209","","8410","20161110222658"
"397","Sharyn_Maceren","21874573","","5576","20161104043730"
"42","Raven-Symoné","722403","","53358","20161110221837"
"162","Megan_Slankard","4209487","","6847","20161111092904"
"244","Jane_French","8749617","","2726","20161023062652"
"566","Morley_(singer)","35764551","","6075","20160921083316"
"11","Ysaye_Maria_Barnwell","174819","","4308","20161106092413"
"30","Patti_Scialfa","538207","","14345","20161109052950"
"117","Connie_Dover","2617894","","3175","20161030023557"
"448","Jade_Starling","25934205","","3068","20161030064054"
"505","Ally_Burnett","30906492","","4556","20161013061404"
"447","Halie_Loren","25901202","","7177","20161030084402"
"311","Stephanie_Dosen","14682847","","5747","20161024045115"
"377","Anomie_Belle","20142251","","12267","20161031053925"
"205","Corinne_West","6050189","","4469","20161030073447"
"514","Penny_Hill_(musician)","31597789","","1623","20161030090941"
"131","Jennifer_Terran","3093975","","3390","20161112063348"
"474","Marian_Call","27788504","","12594","20161105044724"
"127","Joyce_Sims","3002757","","8149","20161112042507"
"254","Beth_Thornley","9393358","","6545","20161106103711"
"432","MystiMayhem","24229120","","10905","20160916001558"
"538","Scarlett_Santana","33168666","","10034","20161103101130"
"56","Julie_London","1013175","","22269","20161110065319"
"640","Kimmie_Rhodes","44190354","","24621","20161030232214"
"535","Jana_Herzen","33097082","","7506","20161030095606"
"336","Gina_Catalino","16823235","","4172","20160808061346"
"301","Rad_(musician)","13721296","","4325","20161023043320"
"308","Shauna_Burns","14308967","","7818","20161024050456"
"212","Beverly_Crawford","6922775","","4859","20161023041731"
"351","Jenni_Alpert","18135265","","7955","20161103214155"
"352","Heather_Baker","18205103","","4893","20161102133215"
"564","Katie_Carroll","35643268","","1872","20161009185832"
"548","Erin_Bowman","34243298","","8000","20161105091353"
"444","Oona_Garthwaite","25447612","","1835","20160913142749"
"261","Hayley_Williams","9726633","","32158","20161107121534"
"560","Cara_Quici","35220617","","7404","20161109023951"
"368","Leslie_Hunt","19097467","","3129","20161030025547"
"242","Nicole_Willis","8643248","","18841","20161029165419"
"646","Cari_Q","45275057","","4720","20161010004724"
"604","Anja_McCloskey","38622776","","3819","20161014105429"
"380","Zola_Jesus","20808096","","16680","20161108082354"
"429","Maria_Armoudian","24049533","","2965","20161026234522"
"405","Mary_McCaslin","22563395","","3029","20161013032104"
"144","Linda_Perhacs","3263012","","5973","20161112091330"
"208","Erin_Harkes","6305499","","5305","20161103023231"
"325","S._J._Tucker","15805798","","11885","20161105063442"
"159","Sloan_Wainwright","4136665","","4676","20161111080538"
"582","3D_Na'Tee","36743151","","11985","20161030130435"
"135","Annie_Gallup","3129420","","2785","20161102212331"
"156","Penelope_Houston","3691338","","4763","20161023043407"
"118","June_Millington","2638641","","58505","20161112142722"
"157","Chris_Pureka","3917614","","8385","20161111053445"
"301","Rad_(musician)","13721296","","4325","20161023043320"
"215","Nancy_Priddy","7132329","","4607","20161106231823"
"636","Beth_Bombara","43370563","","10052","20161030223902"
"297","Autumn_Rowe","12935111","","5733","20161103101357"
"128","Sabrina_Bryan","3028912","","26875","20161112050549"
"623","Kristy_Jackson","41150977","","3813","20161030181507"
"675","Debra_Marquart","50511997","","8554","20161106171809"
"303","Brandi_Shearer","13881166","","3797","20161108202103"
"77","Magdalen_Hsu-Li","1484601","","9373","20161111033204"
"178","Mary_Lorson","4886187","","4399","20161112050315"
"282","April_Meservy","11724531","","2508","20161112030952"
"410","Stefanie_Ridel","23100891","","6912","20161105092136"
"181","Liati_Mayk","5065670","","3453","20160723014959"
"416","Pam_Mark_Hall","23286924","","5938","20161106133427"
"491","Miss_Amy","29328945","","15920","20161030080528"
"153","Rose_Melberg","3612919","","7235","20161112190818"
"81","Kiely_Williams","1632405","","15378","20161111063947"
"205","Corinne_West","6050189","","4469","20161030073447"
"220","Margo_Guryan","7370697","","19249","20161024012614"
"293","Fontaine_(singer)","12592970","","2078","20161112165352"
"350","Carolyne_Mas","17721960","","8173","20161030020446"
"59","Dory_Previn","1042729","","18594","20161111163235"
"181","Liati_Mayk","5065670","","3453","20160723014959"
"552","Audra_the_Rapper","34605819","","7162","20161105094532"
"21","Fergie_(singer)","319659","","46431","20161111163741"
"639","Z_LaLa","43909709","","8405","20161030231303"
"504","Sharon_Van_Etten","30412171","","18629","20161111234004"
"337","Alexa_Wilkinson","16825007","","6099","20160915082313"
"399","Angel_Taylor","22247231","","7472","20161109002441"
"164","Cynthia_Johnson","4289141","","10891","20161111105401"
"317","Eilen_Jewell","15557685","","5812","20161104053758"
