"107","China_Miéville","197233","","24293","20161106105544"
"196","William_Sarjeant","831282","","1692","20160910222904"
"66","Nevil_Shute","78191","","25079","20161105192351"
"323","Stephen_Gallagher","2011183","","4906","20161025093043"
"194","Wallace_Breem","787961","","2388","20161009054325"
"224","Robert_Nichols_(poet)","1029843","","5377","20161110073643"
"320","Nigel_Dennis","1956809","","5714","20160905073205"
"91","Nick_Hornby","169873","","23569","20161111191729"
"373","John_Blackburn_(author)","3160182","","4611","20161031053501"
"533","John_Murray_(novelist)","12417971","","2837","20160920130829"
"184","Stephen_Potter","648451","","29339","20161105132957"
"589","Alexander_Baron","19040580","","11253","20161105093649"
"57","Evelyn_Waugh","63376","","88798","20161105034348"
"296","Beverley_Nichols","1582123","","8511","20161109195550"
"3","Aleister_Crowley","1177","","110992","20161109032611"
"166","Eric_Ambler","486377","","12125","20161109040553"
"1","Aldous_Huxley","628","","48099","20161104145150"
"143","Robert_Harris_(novelist)","320017","","19961","20161107075309"
"108","A._J._Cronin","201658","","34648","20161106110931"
"202","William_De_Morgan","859526","","10992","20161106102245"
"132","Nicolas_Freeling","275998","","11099","20161104190309"
"105","Anthony_Hope","193154","","12530","20161106104036"
"451","Moelwyn_Merchant","6818418","","3366","20161028215322"
"676","Herbert_George_Jenkins","33404356","","8576","20161111112235"
"704","John_Arden","38860764","","8168","20161021084557"
"167","Mark_Gatiss","504012","","40555","20161109042416"
"363","John_Rae_(educator)","2845073","","6076","20161111210652"
"283","Gerald_Bullett","1481109","","5704","20161005182938"
"394","Alfred_Duggan","3818977","","6785","20161020111101"
"200","Norman_Lewis_(author)","848619","","10573","20161109182336"
"52","Arnold_Bennett","56881","","23990","20161107191100"
"328","Cecil_Roberts","2128554","","3348","20161013054110"
"131","George_Gissing","273563","","34089","20161110170557"
"20","J._G._Ballard","15927","","51715","20161111215917"
"715","John_Andrews_(writer)","40484097","","7686","20161108153455"
"324","Dennis_Spooner","2081721","","18137","20161111203554"
"720","Geoffrey_Bocca","41669461","","2813","20160929202244"
"574","Lewis_Gielgud","17575181","","6347","20161006074000"
"6","C._Northcote_Parkinson","5622","","47774","20161104164843"
"513","N._J._Crisp","10415621","","7235","20160817223552"
"532","Adam_Thorpe","12307183","","9201","20161004010810"
"486","Alan_Judd","8357610","","2111","20160926072854"
"416","Denis_MacEoin","4537553","","7122","20161111144721"
"164","William_Horwood_(novelist)","465923","","5372","20161109024535"
"581","Edward_Wyke_Smith","18711577","","3649","20161031055031"
"172","Michael_Wharton","561669","","9946","20161105051922"
"279","Allan_Monkhouse","1451899","","2839","20161005182938"
"668","Anthony_Rhodes","32170963","","5945","20160514043450"
"642","Ralph_Izzard","27336004","","12295","20161106063109"
"303","Tibor_Fischer","1706793","","4092","20160921063810"
"240","A._J._Quinnell","1094504","","4577","20161110111022"
"459","Uel_Key","6960821","","2285","20161104064944"
"683","Walter_Baxter","35993346","","13318","20161018114731"
"682","Albert_Kinross","35798856","","3556","20161112145444"
"446","Chaz_Brenchley","6715364","","3687","20161030073735"
"251","V._S._Pritchett","1185267","","13292","20161109034556"
"639","H._B._Marriott_Watson","26939934","","16786","20161005182946"
"333","Patrick_McGrath_(novelist)","2198889","","8246","20161112162250"
"678","Frank_Baker_(author)","33558733","","7437","20160830172509"
"26","Michael_Moorcock","19358","","43824","20161111221415"
"401","Robert_Smythe_Hichens","3948584","","9506","20161005182940"
"540","Fraser_Harrison","13014748","","3927","20161018000403"
"135","Alex_Garland","285613","","15621","20161111061554"
"254","James_Hanley_(novelist)","1204391","","31634","20161110151858"
"141","Reginald_Hill","311318","","12871","20161108054644"
"243","Louis_Golding","1105910","","4530","20161108173446"
"304","Gerald_Seymour","1718181","","18884","20160922213035"
"413","Achmed_Abdullah","4425067","","7531","20161111125243"
"37","W._Somerset_Maugham","33187","","44243","20161112134130"
"416","Denis_MacEoin","4537553","","7122","20161111144721"
"207","Henry_Treece","907119","","14779","20161110012632"
"182","Anthony_Berkeley_Cox","625048","","5511","20161109090820"
"183","Christopher_Priest_(novelist)","626608","","17590","20161109091412"
"116","Robert_Goddard_(novelist)","210601","","6628","20161106113555"
"717","Gerald_Verner","40951281","","1986","20160912123259"
"701","Raymond_Hitchcock_(author)","38451394","","2552","20160924131753"
"613","David_Sweetman","22739998","","5921","20161105163137"
"549","Frank_Tuohy","13880598","","2373","20160828055156"
"132","Nicolas_Freeling","275998","","11099","20161104190309"
"272","Gerald_Kersh","1398718","","8479","20161111002239"
"142","Simon_Raven","315395","","22710","20161107065843"
"1","Aldous_Huxley","628","","48099","20161104145150"
"239","Herbert_Asquith_(poet)","1086539","","2526","20161110105931"
"527","W._H._Lane_Crauford","11710982","","1753","20160322234330"
"471","Gordon_Burn","7543897","","8198","20161108105112"
"409","Robert_Holdstock","4347610","","16788","20161111114811"
"330","Stewart_Farrar","2150105","","25607","20161112015522"
"217","James_Elroy_Flecker","993746","","8926","20161107080547"
"378","Leslie_Barringer","3373875","","5820","20160922104348"
"573","Ernest_George_Henham","17510333","","5645","20161102161044"
"574","Lewis_Gielgud","17575181","","6347","20161006074000"
"434","Coulson_Kernahan","5576913","","2602","20161112163039"
"564","Anthony_Simmons_(writer)","16373233","","6970","20161015151834"
"487","Geoff_Nicholson","8427527","","3711","20161023021344"
"94","William_S._Baring-Gould","175555","","2748","20161022191219"
"380","Michael_Morpurgo","3512938","","22569","20161112154245"
"262","Osbert_Sitwell","1249903","","11468","20161110173001"
"70","David_Gemmell","83237","","21901","20161105044755"
"111","Hall_Caine","205533","","58728","20161106112426"
"149","Graham_Swift","355990","","5011","20161107115304"
"507","Ronald_James_Marsh","10051477","","1889","20160330144108"
"325","Richard_Whiteing","2114724","","4158","20161110225902"
"523","Jack_Trevor_Story","11467741","","7464","20160806200520"
"194","Wallace_Breem","787961","","2388","20161009054325"
"8","C._S._Lewis","5813","","92784","20161109175748"
"401","Robert_Smythe_Hichens","3948584","","9506","20161005182940"
"211","Robert_Aickman","949371","","28338","20161110042114"
"709","Edward_John_Thompson","39630428","","13777","20161005182948"
"680","Lewis_Patrick_Greene","33862389","","4440","20160828060004"
"295","Lord_Berners","1565604","","15943","20161109180338"
"19","J._R._R._Tolkien","15872","","137274","20161112021558"
"506","Tim_Heald","9931774","","4859","20161109042052"
"627","Jim_Williams_(author)","25200347","","7699","20161030062209"
"728","David_Pinner","43067919","","5386","20161111062007"
"44","Richard_Hughes_(British_writer)","48697","","6584","20161031014520"
"339","James_Hadley_Chase","2321327","","21698","20161112063709"
"439","Ronald_Blythe","6009043","","15211","20161104052323"
"518","G._W._Stonier","11152659","","1156","20161111071535"
"542","Martin_Edwards_(author)","13113080","","20834","20161029212859"
"490","Bernard_Taylor_(author)","8539707","","5341","20161104061340"
"548","Paul_Adam_(English_novelist)","13858438","","2068","20160817141119"
"281","Leo_Myers","1462041","","5616","20161111024524"
"438","Peter_Lovesey","5891486","","9781","20161102195510"
"88","Alan_Sillitoe","167617","","19824","20161106084116"
"44","Richard_Hughes_(British_writer)","48697","","6584","20161031014520"
"734","Alan_Snow","44797488","","2956","20161029063301"
"215","Maurice_Baring","990670","","11547","20161111164847"
"448","Joseph_Ashby-Sterry","6755803","","2331","20161030081441"
"721","Inglis_Gundry","41723655","","6102","20161109010549"
"140","Fergus_Hume","303526","","10712","20161112190657"
"145","Ian_McEwan","327073","","45194","20161111192925"
"258","David_Mitchell_(author)","1212924","","16253","20161110153901"
"699","Paul_Sayer","38152129","","2870","20160529164100"
"294","Stephen_Southwold","1564957","","6886","20160828061041"
"206","Peter_Darvill-Evans","885367","","6330","20161106114630"
"114","Bernard_Cornwell","208551","","21422","20161106113131"
"299","Julian_Fellowes","1673691","","35703","20161112183835"
"282","L._P._Hartley","1463462","","8208","20161111024533"
"100","John_le_Carré","180618","","40622","20161112173109"
"327","William_Hurrell_Mallock","2119931","","71686","20161111230236"
"70","David_Gemmell","83237","","21901","20161105044755"
"463","John_A._Scott","7095261","","3602","20161030195405"
"9","Charles_Williams_(British_writer)","6533","","28381","20161104164851"
"432","Macdonald_Hastings","5342655","","5823","20161112110435"
"593","Denton_Welch","20348229","","5125","20161105110232"
"177","Malcolm_Bradbury","591634","","10323","20161109073329"
"337","P._H._Newby","2260950","","4480","20161112051542"
"429","Martin_Woodhouse","4968125","","9030","20161017072349"
"47","Ford_Madox_Ford","50631","","18441","20161107044624"
"374","Daniel_O'Mahony","3174970","","5849","20161016093912"
"484","Mark_Chadbourn","8115684","","6953","20161029163259"
"167","Mark_Gatiss","504012","","40555","20161109042416"
"627","Jim_Williams_(author)","25200347","","7699","20161030062209"
"728","David_Pinner","43067919","","5386","20161111062007"
"634","Richard_Stapley","26545583","","8074","20161106053030"
"381","Colin_MacInnes","3553829","","7922","20161112165739"
"210","Val_Gielgud","949160","","8617","20161106182631"
"563","Lance_Sieveking","16144694","","12720","20160817060715"
"179","James_Herbert","602725","","17941","20161109080326"
"717","Gerald_Verner","40951281","","1986","20160912123259"
"467","Frank_Thomas_Bullen","7334350","","4791","20161031030242"
"452","Michael_Kenyon","6865537","","3614","20161012184506"
"130","David_Whitaker_(screenwriter)","268718","","6851","20161106180332"
"69","Henry_James","83117","","61155","20161112141130"
"192","Ben_Travers","764500","","31046","20161106054900"
"644","Victor_E._Neuburg","27669429","","6937","20160816185337"
"683","Walter_Baxter","35993346","","13318","20161018114731"
"527","W._H._Lane_Crauford","11710982","","1753","20160322234330"
"547","David_Rees_(author)","13755838","","5700","20161020175743"
"173","Stanley_Middleton","563358","","5486","20161109064159"
"434","Coulson_Kernahan","5576913","","2602","20161112163039"
"607","James_Riordan","21605565","","8326","20161109010722"
"304","Gerald_Seymour","1718181","","18884","20160922213035"
"740","John_Pick","46407508","","931","20160930074724"
"69","Henry_James","83117","","61155","20161112141130"
"242","Paul_Scott_(novelist)","1105739","","19021","20161110112719"
"385","H._Russell_Wakefield","3716509","","8454","20160828055335"
"46","Richard_Aldington","49793","","25418","20161031014735"
"547","David_Rees_(author)","13755838","","5700","20161020175743"
"419","S._Fowler_Wright","4724719","","9800","20161112024021"
"399","Jack_Common","3945056","","11782","20161013231328"
"622","Alan_Wall","24426107","","1684","20161102055559"
"644","Victor_E._Neuburg","27669429","","6937","20160816185337"
"592","Vivian_Beynon_Harris","19292517","","10210","20161105092647"
"240","A._J._Quinnell","1094504","","4577","20161110111022"
"340","John_Symonds","2324138","","6958","20161111055856"
"20160808054459",,,,,
"84","Wyndham_Lewis","160658","","32495","20161106074956"
"83","Dirk_Bogarde","159603","","42617","20161111052440"
"204","John_Buxton_Hilton","875495","","1998","20160723165201"
"395","Alfred_Ollivant_(writer)","3831193","","2052","20160809103944"
"729","John_Guthrie_(novelist)","43338942","","4810","20160520204911"
"536","Noel_Barber","12732493","","3426","20161029060238"
"235","Harry_Thompson","1068259","","16821","20161110094811"
"220","William_Cooper_(novelist)","1001190","","8222","20161107090355"
"637","Walter_Herries_Pollock","26890218","","12790","20161105085203"
"684","Joseph_Jefferson_Farjeon","36036196","","8125","20161107074352"
"482","John_Roman_Baker","8055927","","10984","20161017134629"
"193","Hugh_B._Cave","773778","","17648","20161111141236"
"68","E._F._Benson","82142","","26253","20161108203050"
"628","Chris_Simms_(author)","25353049","","7257","20161030062515"
"441","Philip_MacDonald","6163993","","7185","20160820142848"
"710","W._J._Corbett","39656200","","2720","20161112164604"
"47","Ford_Madox_Ford","50631","","18441","20161107044624"
"440","M._K._Joseph","6018539","","2756","20161018094720"
"215","Maurice_Baring","990670","","11547","20161111164847"
"620","Brian_Keaney","23565241","","4302","20161108061057"
"144","Rupert_Everett","320736","","40516","20161111052350"
"333","Patrick_McGrath_(novelist)","2198889","","8246","20161112162250"
"296","Beverley_Nichols","1582123","","8511","20161109195550"
"619","David_Hart_(UK_political_activist)","23322198","","11334","20161104152553"
"510","Joel_Lane","10306775","","3897","20160806054445"
"156","Harold_Nicolson","425874","","16326","20161108194657"
"240","A._J._Quinnell","1094504","","4577","20161110111022"
"102","Kim_Newman","185080","","18822","20161106101940"
"506","Tim_Heald","9931774","","4859","20161109042052"
"430","Arthur_S._Maxwell","5168281","","4665","20161112132533"
"128","Henry_Williamson","260863","","18436","20161106172502"
"111","Hall_Caine","205533","","58728","20161106112426"
"358","Dave_Stone","2708222","","5507","20161112171033"
"681","Gwyn_Griffin","33916468","","4299","20160920064847"
"416","Denis_MacEoin","4537553","","7122","20161111144721"
"25","Kingsley_Amis","17202","","32290","20161109165210"
"41","Robert_Graves","39345","","36549","20161105013605"
"603","Patrick_Skene_Catling","21189109","","10535","20161028222357"
"340","John_Symonds","2324138","","6958","20161111055856"
"288","Julian_Symons","1506160","","9572","20161109132400"
"592","Vivian_Beynon_Harris","19292517","","10210","20161105092647"
"275","Elleston_Trevor","1424078","","13863","20161109110658"
"401","Robert_Smythe_Hichens","3948584","","9506","20161005182940"
"537","Gerald_Suster","12820034","","4493","20161029072410"
"653","Gerald_Savory","29470346","","2725","20160930124423"
"248","Malcolm_Saville","1153931","","9600","20161110132123"
"490","Bernard_Taylor_(author)","8539707","","5341","20161104061340"
"730","Matthew_Branton","43405221","","1790","20161001033120"
"58","Stephen_Fry","63401","","100413","20161112173109"
"442","Derek_Tangye","6577221","","7413","20161029232721"
"311","Colin_Thubron","1800110","","11556","20161110101316"
"233","Terence_Blacker","1059435","","8866","20161107163252"
"199","Charles_Langbridge_Morgan","838681","","7968","20161026143418"
"571","Peter_Vansittart","17490278","","7342","20160823092246"
"745","Laurence_Meynell","47218996","","1433","20161023203717"
"141","Reginald_Hill","311318","","12871","20161108054644"
"586","Alan_Moore","18932702","","124119","20161112121104"
"148","Jack_Higgins","353462","","19716","20161107114017"
"743","G._F._Bradby","47069387","","1946","20160908013256"
"601","John_Hampson_(novelist)","20918866","","7462","20161106070127"
"319","Gerard_Woodward","1891556","","2659","20161110134803"
"550","Jonathan_Keates","13881451","","3138","20161109063925"
"375","Stephen_Marley_(writer)","3203184","","4429","20160930185834"
